Data/1 Data at 2_3A.csv

#Digilent WaveForms Oscilloscope Acquisition
#Device Name: PlasmaStuff
#Serial Number: SN:210321A41FE0
#Date Time: 2018-11-28 19:54:35.804
#Sample rate: 40000Hz
#Samples: 8192
#Trigger: Source: Channel 2 Type: Edge Condition: Rising Level: 200 mV Hyst.: Auto HoldOff: 0 s
#Channel 1: Range: 2 V/div Offset: 9.62 V
#Channel 2: Range: 2 V/div Offset: 0 V

Time (s),Channel 1 (V),Channel 2 (V)
-0.10237500000000001,-9.5556357237787068,0.66428120760148368
-0.10235,-9.5556357237787086,0.66056382185460072
-0.102325,-9.5593085654107366,0.65684643610772109
-0.1023,-9.5593085654107366,0.65312905036083979
-0.102275,-9.5593085654107366,0.65312905036083979
-0.10225000000000001,-9.5593085654107366,0.64569427886707742
-0.102225,-9.5593085654107366,0.64569427886707575
-0.1022,-9.5593085654107366,0.64197689312019612
-0.102175,-9.5593085654107366,0.63825950737331483
-0.10215,-9.5593085654107366,0.63454212162643353
-0.10212500000000001,-9.5593085654107366,0.63082473587955223
-0.1021,-9.5556357237787068,0.63082473587955057
-0.102075,-9.5556357237787068,0.62710735013267116
-0.10205,-9.5556357237787068,0.62338996438578986
-0.102025,-9.5629814070427663,0.62338996438578986
-0.10200000000000001,-9.5593085654107366,0.61967257863890857
-0.101975,-9.5556357237787086,0.61595519289202727
-0.10195,-9.5593085654107366,0.61595519289202727
-0.101925,-9.5593085654107366,0.6122378071451462
-0.1019,-9.5556357237787068,0.6085204213982649
-0.10187500000000001,-9.5556357237787068,0.6048030356513836
-0.10185,-9.5556357237787068,0.60108564990450064
-0.101825,-9.5556357237787068,0.59736826415762101
-0.1018,-9.5556357237787068,0.59365087841073994
-0.101775,-9.5593085654107366,0.58993349266385864
-0.10175000000000001,-9.5556357237787068,0.58621610691697734
-0.101725,-9.5556357237787068,0.58249872117009605
-0.1017,-9.5556357237787068,0.58249872117009605
-0.101675,-9.5556357237787068,0.57878133542321475
-0.10165,-9.5556357237787068,0.57506394967633367
-0.10162500000000001,-9.5556357237787068,0.57506394967633367
-0.1016,-9.5556357237787068,0.56762917818257108
-0.101575,-9.5556357237787068,0.56762917818257108
-0.10155,-9.5593085654107366,0.56391179243568978
-0.101525,-9.5593085654107366,0.56019440668880871
-0.10150000000000001,-9.5556357237787068,0.55647702094192741
-0.10147500000000001,-9.5556357237787068,0.55647702094192741
-0.10145,-9.5556357237787068,0.54904224944816482
-0.101425,-9.5593085654107366,0.54532486370128352
-0.1014,-9.5593085654107366,0.54532486370128352
-0.10137500000000001,-9.5629814070427663,0.53789009220752115
-0.10135000000000001,-9.5629814070427663,0.53789009220752115
-0.101325,-9.5629814070427663,0.53417270646063986
-0.1013,-9.5629814070427663,0.53045532071375856
-0.101275,-9.5629814070427663,0.52673793496687726
-0.10125000000000001,-9.5593085654107366,0.52302054921999619
-0.10122500000000001,-9.5593085654107366,0.52302054921999619
-0.1012,-9.5593085654107366,0.5155857777262336
-0.101175,-9.5629814070427663,0.5155857777262336
-0.10115,-9.5629814070427663,0.5118683919793523
-0.10112500000000001,-9.5593085654107366,0.5118683919793523
-0.10110000000000001,-9.5593085654107366,0.50443362048559326
-0.101075,-9.5593085654107366,0.50443362048558993
-0.10105,-9.5593085654107366,0.49699884899182739
-0.101025,-9.5593085654107366,0.49699884899182739
-0.10100000000000001,-9.5593085654107366,0.49328146324494615
-0.10097500000000001,-9.5593085654107366,0.485846691751187
-0.10095,-9.5593085654107366,0.48584669175118361
-0.100925,-9.5593085654107366,0.48212930600430237
-0.1009,-9.5593085654107366,0.47841192025742113
-0.10087500000000001,-9.5593085654107366,0.47469453451053989
-0.10085000000000001,-9.5593085654107366,0.47469453451053989
-0.100825,-9.5629814070427663,0.46725976301677741
-0.1008,-9.5593085654107366,0.46354237726989611
-0.100775,-9.5593085654107366,0.46354237726989611
-0.10075000000000001,-9.5629814070427663,0.45982499152301487
-0.10072500000000001,-9.5629814070427663,0.45610760577613529
-0.1007,-9.5629814070427663,0.45239022002925239
-0.100675,-9.5629814070427663,0.44867283428237115
-0.10065,-9.5629814070427663,0.44495544853548991
-0.10062500000000001,-9.5593085654107366,0.44123806278860866
-0.10060000000000001,-9.5593085654107366,0.43752067704172903
-0.100575,-9.5629814070427663,0.43380329129484613
-0.10055,-9.5629814070427663,0.43380329129484613
-0.100525,-9.5593085654107366,0.43008590554796489
-0.10050000000000001,-9.5593085654107366,0.42636851980108365
-0.10047500000000001,-9.5593085654107366,0.42265113405420407
-0.10045,-9.5593085654107366,0.41893374830732116
-0.100425,-9.5593085654107366,0.41521636256043992
-0.1004,-9.5629814070427663,0.41149897681355863
-0.10037500000000001,-9.5629814070427663,0.40406420531979614
-0.10035000000000001,-9.5629814070427663,0.40034681957291657
-0.100325,-9.5629814070427663,0.4003468195729149
-0.1003,-9.5629814070427663,0.39662943382603366
-0.100275,-9.5629814070427663,0.39291204807915242
-0.10025000000000001,-9.5629814070427663,0.38919466233227118
-0.10022500000000001,-9.5666542486747961,0.38919466233227118
-0.1002,-9.5629814070427663,0.38175989083850864
-0.100175,-9.5629814070427663,0.38175989083850864
-0.10015,-9.5629814070427663,0.3780425050916274
-0.10012500000000001,-9.5593085654107366,0.37432511934474616
-0.10010000000000001,-9.5593085654107366,0.37060773359786492
-0.100075,-9.5629814070427663,0.36689034785098368
-0.10005,-9.5629814070427663,0.36317296210410244
-0.100025,-9.5629814070427663,0.36317296210410244
-0.10000000000000001,-9.5593085654107366,0.3594555763572212
-0.099975000000000008,-9.5593085654107366,0.3557381906103399
-0.099949999999999997,-9.5593085654107366,0.35202080486345866
-0.099925,-9.5629814070427663,0.34830341911657742
-0.099900000000000003,-9.5629814070427663,0.34458603336969618
-0.099875000000000005,-9.5629814070427663,0.34086864762281494
-0.099850000000000008,-9.5629814070427663,0.33715126187593369
-0.099824999999999997,-9.5629814070427663,0.33715126187593369
-0.0998,-9.5629814070427663,0.33343387612905245
-0.099775000000000003,-9.5629814070427663,0.32971649038217116
-0.099750000000000005,-9.5666542486747979,0.32599910463528992
-0.099725000000000008,-9.5666542486747979,0.32228171888840867
-0.099699999999999997,-9.5666542486747961,0.31856433314152405
-0.099675,-9.5629814070427663,0.31112956164776495
-0.099650000000000002,-9.5629814070427663,0.31112956164776495
-0.099625000000000005,-9.5666542486747979,0.30741217590088371
-0.099600000000000008,-9.5666542486747979,0.30369479015400241
-0.099574999999999997,-9.5666542486747979,0.29997740440711951
-0.09955,-9.5666542486747979,0.29626001866023993
-0.099525000000000002,-9.5666542486747979,0.29254263291335869
-0.099500000000000005,-9.5629814070427663,0.29254263291335869
-0.099475000000000008,-9.5666542486747979,0.28882524716647745
-0.099449999999999997,-9.5629814070427663,0.28510786141959454
-0.099424999999999999,-9.5629814070427663,0.28139047567271497
-0.099400000000000002,-9.5666542486747979,0.27767308992583367
-0.099375000000000005,-9.5666542486747979,0.27395570417895243
-0.099350000000000008,-9.5629814070427663,0.27395570417895243
-0.099324999999999997,-9.5629814070427681,0.27023831843206952
-0.099299999999999999,-9.5666542486747979,0.26652093268518995
-0.099275000000000002,-9.5666542486747979,0.25908616119142747
-0.099250000000000005,-9.5629814070427663,0.25536877544454623
-0.099225000000000008,-9.5629814070427663,0.25536877544454623
-0.099199999999999997,-9.5629814070427663,0.25165138969766332
-0.099174999999999999,-9.5629814070427663,0.24793400395078372
-0.099150000000000002,-9.5629814070427663,0.24421661820390245
-0.099125000000000005,-9.5666542486747979,0.24049923245702121
-0.099100000000000008,-9.5666542486747979,0.23678184671013996
-0.099074999999999996,-9.5666542486747979,0.23678184671013658
-0.099049999999999999,-9.5666542486747979,0.22934707521637746
-0.099025000000000002,-9.5666542486747979,0.22562968946949621
-0.099000000000000005,-9.5666542486747979,0.22562968946949621
-0.098975000000000007,-9.5666542486747979,0.22191230372261497
-0.098949999999999996,-9.5703270903068276,0.22191230372261328
-0.098924999999999999,-9.5703270903068276,0.2181949179757337
-0.098900000000000002,-9.5666542486747979,0.21447753222885246
-0.098875000000000005,-9.5666542486747979,0.21076014648197122
-0.098850000000000007,-9.5629814070427663,0.20704276073508995
-0.098824999999999996,-9.5629814070427663,0.20332537498820702
-0.098799999999999999,-9.5629814070427663,0.19960798924132747
-0.098775000000000002,-9.5629814070427663,0.19589060349444623
-0.098750000000000004,-9.5629814070427663,0.19217321774756496
-0.098725000000000007,-9.5629814070427663,0.18845583200068372
-0.098699999999999996,-9.5629814070427663,0.18845583200068033
-0.098674999999999999,-9.5629814070427663,0.18102106050692124
-0.098650000000000002,-9.5666542486747979,0.18102106050692124
-0.098625000000000004,-9.5666542486747979,0.17730367476003997
-0.098600000000000007,-9.5666542486747979,0.17358628901315873
-0.098574999999999996,-9.5666542486747979,0.16986890326627579
-0.098549999999999999,-9.5666542486747979,0.16615151751939622
-0.098525000000000001,-9.5703270903068276,0.16615151751939622
-0.098500000000000004,-9.5666542486747979,0.16243413177251498
-0.098475000000000007,-9.5666542486747979,0.15871674602563374
-0.098449999999999996,-9.5666542486747961,0.1549993602787508
-0.098424999999999999,-9.5629814070427663,0.15128197453187123
-0.098400000000000001,-9.5666542486747979,0.14756458878498999
-0.098375000000000004,-9.5666542486747979,0.14384720303810875
-0.098350000000000007,-9.5666542486747979,0.14012981729122748
-0.09832500000000001,-9.5666542486747979,0.13641243154434793
-0.098299999999999998,-9.5666542486747979,0.13269504579746499
-0.098275000000000001,-9.5666542486747979,0.12897766005058375
-0.098250000000000004,-9.5666542486747979,0.12897766005058375
-0.098225000000000007,-9.5666542486747979,0.12154288855682124
-0.09820000000000001,-9.5666542486747979,0.12154288855682124
-0.098174999999999998,-9.5703270903068276,0.11782550280993999
-0.098150000000000001,-9.5703270903068276,0.11410811706305875
-0.098125000000000004,-9.5703270903068276,0.11039073131617749
-0.098100000000000007,-9.5703270903068276,0.10667334556929625
-0.098075000000000009,-9.5666542486747996,0.10667334556929625
-0.098049999999999998,-9.5703270903068276,0.102955959822415
-0.098025000000000001,-9.5703270903068276,0.099238574075533756
-0.098000000000000004,-9.5703270903068276,0.095521188328652501
-0.097975000000000007,-9.5703270903068276,0.095521188328652501
-0.097950000000000009,-9.5739999319388573,0.091803802581772953
-0.097924999999999998,-9.5739999319388591,0.088086416834890005
-0.097900000000000001,-9.5739999319388591,0.08436903108800875
-0.097875000000000004,-9.5703270903068276,0.080651645341127509
-0.097850000000000006,-9.5739999319388591,0.076934259594246254
-0.097825000000000009,-9.5739999319388591,0.073216873847366706
-0.097799999999999998,-9.5739999319388591,0.069499488100483758
-0.097775000000000001,-9.5739999319388591,0.065782102353602517
-0.097750000000000004,-9.5703270903068276,0.062064716606721262
-0.097725000000000006,-9.5739999319388591,0.058347330859840014
-0.097700000000000009,-9.5703270903068294,0.058347330859840014
-0.097674999999999998,-9.5739999319388591,0.054629945112958767
-0.097650000000000001,-9.5739999319388591,0.050912559366077519
-0.097625000000000003,-9.5739999319388591,0.050912559366077519
-0.097600000000000006,-9.5703270903068276,0.043477787872315016
-0.097575000000000009,-9.5739999319388573,0.043477787872315016
-0.097549999999999998,-9.5739999319388591,0.039760402125433768
-0.097525000000000001,-9.5739999319388591,0.03604301637855252
-0.097500000000000003,-9.5739999319388591,0.032325630631671272
-0.097475000000000006,-9.5739999319388591,0.028608244884790024
-0.097450000000000009,-9.5703270903068294,0.024890859137910466
-0.097424999999999998,-9.5703270903068276,0.024890859137908776
-0.0974,-9.5703270903068276,0.021173473391027525
-0.097375000000000003,-9.5703270903068276,0.017456087644146277
-0.097350000000000006,-9.5739999319388591,0.013738701897265029
-0.097325000000000009,-9.5703270903068294,0.01002131615038547
-0.097299999999999998,-9.5739999319388591,0.010021316150383779
-0.097275,-9.5739999319388591,0.0025865446566212813
-0.097250000000000003,-9.5739999319388591,0.0025865446566212813
-0.097225000000000006,-9.5703270903068276,-0.0011308410902599675
-0.097200000000000009,-9.5739999319388573,-0.0011308410902599675
-0.097174999999999997,-9.5739999319388591,-0.008565612584022466
-0.09715,-9.5776727735708889,-0.012282998330903714
-0.097125000000000003,-9.5776727735708889,-0.016000384077784962
-0.097100000000000006,-9.5776727735708889,-0.019717769824666213
-0.097075000000000009,-9.5739999319388609,-0.023435155571545772
-0.097049999999999997,-9.5739999319388591,-0.027152541318428709
-0.097025,-9.5776727735708889,-0.030869927065309957
-0.097000000000000003,-9.5739999319388591,-0.030869927065309957
-0.096975000000000006,-9.5739999319388591,-0.034587312812191205
-0.096950000000000008,-9.5739999319388591,-0.038304698559072453
-0.096924999999999997,-9.5739999319388591,-0.042022084305953708
-0.0969,-9.5739999319388591,-0.042022084305953708
-0.096875000000000003,-9.5739999319388591,-0.045739470052834956
-0.096850000000000006,-9.5739999319388591,-0.049456855799716204
-0.096825000000000008,-9.5776727735708889,-0.053174241546597452
-0.096799999999999997,-9.5776727735708889,-0.0568916272934787
-0.096775,-9.5776727735708889,-0.0568916272934787
-0.096750000000000003,-9.5776727735708889,-0.060609013040359955
-0.096725000000000005,-9.5776727735708889,-0.064326398787241196
-0.096700000000000008,-9.5739999319388591,-0.068043784534122451
-0.096674999999999997,-9.5776727735708889,-0.071761170281005385
-0.09665,-9.5776727735708889,-0.075478556027884947
-0.096625000000000003,-9.5776727735708889,-0.079195941774766188
-0.096600000000000005,-9.5776727735708889,-0.079195941774766188
-0.096575000000000008,-9.5776727735708889,-0.086630713268528697
-0.096549999999999997,-9.5776727735708871,-0.08663071326853039
-0.096525,-9.5739999319388591,-0.090348099015409938
-0.096500000000000002,-9.5776727735708889,-0.090348099015409938
-0.096475000000000005,-9.5776727735708889,-0.097782870509172434
-0.096450000000000008,-9.5739999319388591,-0.10150025625605369
-0.096424999999999997,-9.5739999319388609,-0.10521764200293493
-0.0964,-9.5776727735708889,-0.10521764200293493
-0.096375000000000002,-9.5776727735708889,-0.10893502774981619
-0.096350000000000005,-9.5813456152029204,-0.11265241349669743
-0.096325000000000008,-9.5813456152029204,-0.11265241349669743
-0.096299999999999997,-9.5850184568349484,-0.11636979924358037
-0.096274999999999999,-9.5813456152029204,-0.12008718499045994
-0.096250000000000002,-9.5813456152029204,-0.12380457073734119
-0.096225000000000005,-9.5813456152029204,-0.12380457073734119
-0.096200000000000008,-9.5776727735708889,-0.13123934223110367
-0.096174999999999997,-9.5776727735708889,-0.13123934223110537
-0.096149999999999999,-9.5776727735708889,-0.13495672797798491
-0.096125000000000002,-9.5776727735708889,-0.13867411372486618
-0.096100000000000005,-9.5739999319388591,-0.14239149947174742
-0.096075000000000008,-9.5739999319388591,-0.14610888521862866
-0.096049999999999996,-9.5739999319388591,-0.14982627096550993
-0.096024999999999999,-9.5739999319388591,-0.14982627096550993
-0.096000000000000002,-9.5776727735708889,-0.15354365671239117
-0.095975000000000005,-9.5813456152029204,-0.15726104245927242
-0.095950000000000008,-9.5813456152029204,-0.16097842820615366
-0.095924999999999996,-9.5776727735708906,-0.16469581395303493
-0.095899999999999999,-9.5813456152029204,-0.16469581395303493
-0.095875000000000002,-9.5813456152029204,-0.16841319969991617
-0.095850000000000005,-9.5813456152029204,-0.16841319969991617
-0.095825000000000007,-9.5813456152029204,-0.17213058544679741
-0.095799999999999996,-9.5813456152029204,-0.17584797119368037
-0.095774999999999999,-9.5813456152029204,-0.17956535694055992
-0.095750000000000002,-9.5813456152029204,-0.18328274268744116
-0.095725000000000005,-9.5813456152029204,-0.1870001284343224
-0.095700000000000007,-9.5813456152029204,-0.1870001284343224
-0.095674999999999996,-9.5813456152029186,-0.19443489992808491
-0.095649999999999999,-9.5776727735708889,-0.19443489992808491
-0.095625000000000002,-9.5813456152029204,-0.19815228567496615
-0.095600000000000004,-9.5776727735708889,-0.20186967142184739
-0.095575000000000007,-9.5813456152029204,-0.20186967142184739
-0.095549999999999996,-9.5813456152029204,-0.20558705716873035
-0.095524999999999999,-9.5813456152029204,-0.2093044429156099
-0.095500000000000002,-9.5813456152029204,-0.21302182866249114
-0.095475000000000004,-9.5813456152029204,-0.21302182866249114
-0.095450000000000007,-9.5850184568349501,-0.21673921440937241
-0.095424999999999996,-9.5886912984669781,-0.22045660015625534
-0.095399999999999999,-9.5850184568349501,-0.22417398590313489
-0.095375000000000001,-9.5850184568349501,-0.22789137165001613
-0.095350000000000004,-9.5850184568349501,-0.22789137165001613
-0.095325000000000007,-9.5850184568349501,-0.2316087573968974
-0.095299999999999996,-9.5850184568349501,-0.23532614314378034
-0.095274999999999999,-9.5850184568349501,-0.23904352889065988
-0.095250000000000001,-9.5813456152029204,-0.24276091463754115
-0.095225000000000004,-9.5813456152029204,-0.24276091463754115
-0.095200000000000007,-9.5850184568349501,-0.25019568613130366
-0.09517500000000001,-9.5850184568349501,-0.25019568613130366
-0.095149999999999998,-9.5813456152029204,-0.2539130718781849
-0.095125000000000001,-9.5813456152029204,-0.25763045762506614
-0.095100000000000004,-9.5850184568349501,-0.25763045762506614
-0.095075000000000007,-9.5850184568349501,-0.26134784337194739
-0.095050000000000009,-9.5813456152029222,-0.26506522911882696
-0.095024999999999998,-9.5850184568349501,-0.26506522911882863
-0.095000000000000001,-9.5850184568349501,-0.26878261486570987
-0.094975000000000004,-9.5886912984669799,-0.27250000061259111
-0.094950000000000007,-9.5886912984669799,-0.27621738635947241
-0.094925000000000009,-9.5886912984669799,-0.27993477210635198
-0.094899999999999998,-9.5850184568349501,-0.27993477210635365
-0.094875000000000001,-9.5813456152029204,-0.28736954360011613
-0.094850000000000004,-9.5850184568349501,-0.29108692934699737
-0.094825000000000007,-9.5813456152029204,-0.29108692934699737
-0.094800000000000009,-9.5850184568349484,-0.29480431509387695
-0.094774999999999998,-9.5813456152029204,-0.29852170084075985
-0.094750000000000001,-9.5850184568349501,-0.30223908658764115
-0.094725000000000004,-9.5850184568349501,-0.30223908658764115
-0.094700000000000006,-9.5813456152029204,-0.30595647233452239
-0.094675000000000009,-9.5850184568349484,-0.30967385808140196
-0.094649999999999998,-9.5850184568349501,-0.31339124382828487
-0.094625000000000001,-9.5850184568349501,-0.31710862957516611
-0.094600000000000004,-9.5850184568349501,-0.31710862957516611
-0.094575000000000006,-9.5850184568349501,-0.32082601532204735
-0.094550000000000009,-9.5850184568349501,-0.32454340106892693
-0.094524999999999998,-9.5850184568349501,-0.32826078681580989
-0.094500000000000001,-9.5850184568349501,-0.33197817256269113
-0.094475000000000003,-9.5850184568349501,-0.33569555830957237
-0.094450000000000006,-9.5886912984669799,-0.33569555830957237
-0.094425000000000009,-9.5886912984669799,-0.33941294405645195
-0.094399999999999998,-9.5886912984669799,-0.34313032980333485
-0.094375000000000001,-9.5923641400990114,-0.3468477155502161
-0.094350000000000003,-9.5923641400990114,-0.35056510129709734
-0.094325000000000006,-9.5923641400990114,-0.35428248704397863
-0.094300000000000009,-9.5923641400990114,-0.35428248704397863
-0.094274999999999998,-9.5923641400990114,-0.35799987279085987
-0.09425,-9.5886912984669799,-0.35799987279085987
-0.094225000000000003,-9.5886912984669799,-0.36171725853774112
-0.094200000000000006,-9.5923641400990114,-0.36543464428462236
-0.094175000000000009,-9.5923641400990114,-0.36915203003150193
-0.094149999999999998,-9.5923641400990114,-0.3691520300315036
