Data/1 Data at 3_9A.csv

#Digilent WaveForms Oscilloscope Acquisition
#Device Name: PlasmaStuff
#Serial Number: SN:210321A41FE0
#Date Time: 2018-11-28 20:01:34.794
#Sample rate: 40000Hz
#Samples: 8192
#Trigger: Source: Channel 2 Type: Edge Condition: Rising Level: 200 mV Hyst.: Auto HoldOff: 0 s
#Channel 1: Range: 2 V/div Offset: 9.62 V
#Channel 2: Range: 2 V/div Offset: 0 V

Time (s),Channel 1 (V),Channel 2 (V)
-0.10237500000000001,-8.8320859222686927,0.57134656392945238
-0.10235,-8.8357587639007242,0.56762917818256942
-0.102325,-8.839431605532754,0.56391179243568978
-0.1023,-8.8284130806366612,0.56019440668880871
-0.102275,-8.8320859222686927,0.55647702094192741
-0.10225000000000001,-8.839431605532754,0.55275963519504612
-0.102225,-8.8504501304288485,0.55275963519504445
-0.1022,-8.8577958136929063,0.54904224944816482
-0.102175,-8.861468655324936,0.54532486370128352
-0.10215,-8.8651414969569675,0.54160747795440245
-0.10212500000000001,-8.8688143385889973,0.54160747795440245
-0.1021,-8.8761600218530603,0.53789009220752115
-0.102075,-8.87983286348509,0.53789009220752115
-0.10205,-8.8835057051171198,0.53417270646063986
-0.102025,-8.8871785467491495,0.53045532071375856
-0.10200000000000001,-8.8908513883811811,0.52673793496687726
-0.101975,-8.9018699132772738,0.52302054921999452
-0.10195,-8.9055427549093036,0.51930316347311489
-0.101925,-8.9092155965413333,0.51930316347311489
-0.1019,-8.9165612798053946,0.5155857777262336
-0.10187500000000001,-8.9202341214374243,0.5118683919793523
-0.10185,-8.9239069630694576,0.50815100623246956
-0.101825,-8.9275798047014856,0.50443362048558993
-0.1018,-8.9239069630694559,0.50443362048558993
-0.101775,-8.9349254879655469,0.50071623473870863
-0.10175000000000001,-8.9385983295975784,0.49699884899182739
-0.101725,-8.9459440128616396,0.49328146324494448
-0.1017,-8.9496168544936694,0.48956407749806485
-0.101675,-8.9569625377577307,0.48956407749806485
-0.10165,-8.9606353793897604,0.48584669175118361
-0.10162500000000001,-8.9679810626538217,0.48212930600430237
-0.1016,-8.971653904285855,0.48212930600430071
-0.101575,-8.9753267459178829,0.47841192025742113
-0.10155,-8.9789995875499127,0.47469453451053989
-0.101525,-8.9863452708139739,0.47097714876365865
-0.10150000000000001,-8.9863452708139739,0.46725976301677741
-0.10147500000000001,-8.9973637957100614,0.46725976301677741
-0.10145,-9.0010366373420965,0.46354237726989611
-0.101425,-9.0010366373420965,0.45982499152301487
-0.1014,-9.0010366373420965,0.45610760577613363
-0.10137500000000001,-9.0083823206061577,0.45239022002925239
-0.10135000000000001,-9.0120551622381857,0.44867283428237281
-0.101325,-9.015728003870219,0.44867283428237115
-0.1013,-9.0194008455022487,0.44123806278860866
-0.101275,-9.0230736871342803,0.44123806278860866
-0.10125000000000001,-9.0304193703983415,0.43752067704172737
-0.10122500000000001,-9.0340922120303695,0.43380329129484779
-0.1012,-9.037765053662401,0.43008590554796489
-0.101175,-9.0414378952944325,0.43008590554796489
-0.10115,-9.0451107369264623,0.42636851980108365
-0.10112500000000001,-9.0451107369264623,0.4226511340542024
-0.10110000000000001,-9.05245642019052,0.41893374830732283
-0.101075,-9.0598021034545848,0.41521636256043992
-0.10105,-9.0634749450866163,0.41149897681355863
-0.101025,-9.0671477867186461,0.41149897681355863
-0.10100000000000001,-9.0708206283506758,0.40406420531979614
-0.10097500000000001,-9.0744934699827056,0.40406420531979614
-0.10095,-9.0781663116147371,0.4003468195729149
-0.100925,-9.0818391532467686,0.39662943382603366
-0.1009,-9.0781663116147371,0.39291204807915242
-0.10087500000000001,-9.0855119948787983,0.38919466233227118
-0.10085000000000001,-9.0891848365108281,0.38919466233227118
-0.100825,-9.0928576781428596,0.38547727658538988
-0.1008,-9.1038762030389506,0.38175989083850864
-0.100775,-9.1038762030389506,0.38175989083850864
-0.10075000000000001,-9.1112218863030119,0.3780425050916274
-0.10072500000000001,-9.1148947279350416,0.37432511934474783
-0.1007,-9.1185675695670731,0.37060773359786492
-0.100675,-9.1259132528311344,0.36689034785098368
-0.10065,-9.1295860944631642,0.36317296210410244
-0.10062500000000001,-9.1295860944631642,0.3594555763572212
-0.10060000000000001,-9.1332589360951939,0.35573819061034156
-0.100575,-9.1369317777272254,0.3557381906103399
-0.10055,-9.1406046193592569,0.35202080486345866
-0.100525,-9.1442774609912867,0.34830341911657742
-0.10050000000000001,-9.1479503026233182,0.34458603336969618
-0.10047500000000001,-9.1479503026233182,0.34458603336969618
-0.10045,-9.151623144255348,0.34086864762281494
-0.100425,-9.1552959858873795,0.33715126187593369
-0.1004,-9.1589688275194092,0.33343387612905245
-0.10037500000000001,-9.162641669151439,0.32971649038217116
-0.10035000000000001,-9.1663145107834687,0.32971649038217116
-0.100325,-9.1699873524155002,0.32599910463528992
-0.1003,-9.1736601940475317,0.32228171888840867
-0.100275,-9.1736601940475317,0.31856433314152743
-0.10025000000000001,-9.1773330356795615,0.31484694739464619
-0.10022500000000001,-9.1810058773115912,0.31112956164776662
-0.1002,-9.1846787189436228,0.31112956164776495
-0.100175,-9.1883515605756543,0.30369479015400241
-0.10015,-9.1883515605756543,0.30369479015400241
-0.10012500000000001,-9.192024402207684,0.29997740440712117
-0.10010000000000001,-9.1956972438397138,0.29626001866023993
-0.100075,-9.1993700854717453,0.29254263291335869
-0.10005,-9.2067157687358065,0.28882524716647745
-0.100025,-9.2067157687358065,0.28882524716647745
-0.10000000000000001,-9.2067157687358065,0.28510786141959621
-0.099975000000000008,-9.2103886103678363,0.28139047567271497
-0.099949999999999997,-9.2140614519998678,0.27767308992583367
-0.099925,-9.2177342936318976,0.27767308992583367
-0.099900000000000003,-9.2177342936318976,0.27395570417895243
-0.099875000000000005,-9.2177342936318976,0.27023831843207119
-0.099850000000000008,-9.2177342936318976,0.26652093268518995
-0.099824999999999997,-9.2177342936318976,0.26280354693830871
-0.0998,-9.2140614519998678,0.26280354693830871
-0.099775000000000003,-9.2177342936318976,0.25908616119142747
-0.099750000000000005,-9.2250799768959588,0.25165138969766498
-0.099725000000000008,-9.2287528185279886,0.25165138969766498
-0.099699999999999997,-9.2324256601600219,0.24793400395078202
-0.099675,-9.2360985017920498,0.24421661820390245
-0.099650000000000002,-9.2397713434240814,0.24049923245702121
-0.099625000000000005,-9.2434441850561111,0.23678184671013996
-0.099600000000000008,-9.2471170266881426,0.23678184671013996
-0.099574999999999997,-9.2471170266881444,0.233064460963257
-0.09955,-9.2507898683201724,0.22934707521637746
-0.099525000000000002,-9.2544627099522021,0.22562968946949621
-0.099500000000000005,-9.2581355515842336,0.22191230372261497
-0.099475000000000008,-9.2618083932162634,0.22191230372261497
-0.099449999999999997,-9.2618083932162651,0.2181949179757337
-0.099424999999999999,-9.2654812348482949,0.2181949179757337
-0.099400000000000002,-9.2691540764803246,0.21076014648197122
-0.099375000000000005,-9.2691540764803246,0.21076014648197122
-0.099350000000000008,-9.2728269181123562,0.20704276073508995
-0.099324999999999997,-9.2728269181123579,0.20332537498820702
-0.099299999999999999,-9.2764997597443859,0.19960798924132747
-0.099275000000000002,-9.2801726013764174,0.19589060349444623
-0.099250000000000005,-9.2801726013764174,0.19589060349444623
-0.099225000000000008,-9.2838454430084472,0.19217321774756496
-0.099199999999999997,-9.2838454430084489,0.19217321774756327
-0.099174999999999999,-9.2875182846404769,0.18845583200068372
-0.099150000000000002,-9.2911911262725084,0.18473844625380248
-0.099125000000000005,-9.2948639679045382,0.18102106050692124
-0.099100000000000008,-9.2948639679045382,0.17730367476003997
-0.099074999999999996,-9.2985368095365697,0.17358628901315704
-0.099049999999999999,-9.2985368095365697,0.16986890326627749
-0.099025000000000002,-9.3022096511685994,0.16986890326627749
-0.099000000000000005,-9.305882492800631,0.16615151751939622
-0.098975000000000007,-9.305882492800631,0.16243413177251498
-0.098949999999999996,-9.3132281760646904,0.15871674602563204
-0.098924999999999999,-9.3132281760646904,0.1549993602787525
-0.098900000000000002,-9.3132281760646904,0.15128197453187123
-0.098875000000000005,-9.316901017696722,0.14756458878498999
-0.098850000000000007,-9.316901017696722,0.14384720303810875
-0.098824999999999996,-9.316901017696722,0.14384720303810705
-0.098799999999999999,-9.316901017696722,0.14012981729122748
-0.098775000000000002,-9.3205738593287517,0.13641243154434624
-0.098750000000000004,-9.3205738593287517,0.13641243154434624
-0.098725000000000007,-9.3205738593287517,0.13269504579746499
-0.098699999999999996,-9.3242467009607832,0.12897766005058206
-0.098674999999999999,-9.3242467009607832,0.12526027430370251
-0.098650000000000002,-9.327919542592813,0.12154288855682124
-0.098625000000000004,-9.3315923842248445,0.11782550280993999
-0.098600000000000007,-9.3315923842248445,0.11782550280993999
-0.098574999999999996,-9.3352652258568742,0.11410811706305875
-0.098549999999999999,-9.3352652258568742,0.11410811706305875
-0.098525000000000001,-9.3389380674889058,0.10667334556929625
-0.098500000000000004,-9.3426109091209355,0.10667334556929625
-0.098475000000000007,-9.3426109091209355,0.102955959822415
-0.098449999999999996,-9.346283750752967,0.099238574075533756
-0.098424999999999999,-9.3499565923849968,0.099238574075533756
-0.098400000000000001,-9.3499565923849968,0.095521188328652501
-0.098375000000000004,-9.3499565923849968,0.09180380258177126
-0.098350000000000007,-9.3499565923849968,0.088086416834890005
-0.09832500000000001,-9.3536294340170247,0.084369031088010443
-0.098299999999999998,-9.3536294340170265,0.080651645341127509
-0.098275000000000001,-9.357302275649058,0.080651645341127509
-0.098250000000000004,-9.357302275649058,0.076934259594246254
-0.098225000000000007,-9.357302275649058,0.076934259594246254
-0.09820000000000001,-9.360975117281086,0.069499488100487145
-0.098174999999999998,-9.3646479589131193,0.065782102353602517
-0.098150000000000001,-9.3646479589131193,0.065782102353602517
-0.098125000000000004,-9.3646479589131193,0.062064716606721262
-0.098100000000000007,-9.368320800545149,0.058347330859840014
-0.098075000000000009,-9.368320800545149,0.058347330859840014
-0.098049999999999998,-9.368320800545149,0.054629945112958767
-0.098025000000000001,-9.368320800545149,0.050912559366077519
-0.098000000000000004,-9.3719936421771806,0.047195173619196271
-0.097975000000000007,-9.3719936421771806,0.043477787872315016
-0.097950000000000009,-9.3756664838092085,0.043477787872315016
-0.097924999999999998,-9.3756664838092103,0.03604301637855252
-0.097900000000000001,-9.37933932544124,0.03604301637855252
-0.097875000000000004,-9.37933932544124,0.032325630631671272
-0.097850000000000006,-9.37933932544124,0.028608244884790024
-0.097825000000000009,-9.37933932544124,0.028608244884790024
-0.097799999999999998,-9.3830121670732716,0.024890859137908776
-0.097775000000000001,-9.3830121670732716,0.021173473391027525
-0.097750000000000004,-9.3866850087053013,0.017456087644146277
-0.097725000000000006,-9.3866850087053013,0.017456087644146277
-0.097700000000000009,-9.3866850087053013,0.017456087644146277
-0.097674999999999998,-9.3866850087053013,0.013738701897265029
-0.097650000000000001,-9.3903578503373328,0.0063039304035025301
-0.097625000000000003,-9.3903578503373328,0.0063039304035025301
-0.097600000000000006,-9.3940306919693626,0.0025865446566212813
-0.097575000000000009,-9.3903578503373346,-0.001130841090258277
-0.097549999999999998,-9.3903578503373328,-0.0011308410902599675
-0.097525000000000001,-9.3940306919693626,-0.0048482268371412163
-0.097500000000000003,-9.3977035336013941,-0.008565612584022466
-0.097475000000000006,-9.3977035336013941,-0.012282998330903714
-0.097450000000000009,-9.3977035336013941,-0.016000384077783272
-0.097424999999999998,-9.4013763752334238,-0.019717769824666213
-0.0974,-9.4013763752334238,-0.019717769824666213
-0.097375000000000003,-9.3977035336013941,-0.023435155571547461
-0.097350000000000006,-9.4013763752334238,-0.027152541318428709
-0.097325000000000009,-9.4013763752334238,-0.030869927065308268
-0.097299999999999998,-9.4050492168654536,-0.034587312812191205
-0.097275,-9.4050492168654536,-0.034587312812191205
-0.097250000000000003,-9.4050492168654536,-0.038304698559072453
-0.097225000000000006,-9.4050492168654536,-0.042022084305953708
-0.097200000000000009,-9.4050492168654536,-0.042022084305953708
-0.097174999999999997,-9.4087220584974851,-0.045739470052834956
-0.09715,-9.4087220584974851,-0.049456855799716204
-0.097125000000000003,-9.4087220584974851,-0.053174241546597452
-0.097100000000000006,-9.4123949001295149,-0.0568916272934787
-0.097075000000000009,-9.4123949001295149,-0.0568916272934787
-0.097049999999999997,-9.4123949001295149,-0.060609013040359955
-0.097025,-9.4160677417615464,-0.064326398787241196
-0.097000000000000003,-9.4160677417615464,-0.068043784534122451
-0.096975000000000006,-9.4160677417615464,-0.071761170281003692
-0.096950000000000008,-9.4160677417615464,-0.071761170281003692
-0.096924999999999997,-9.4197405833935761,-0.075478556027884947
-0.0969,-9.4197405833935761,-0.079195941774766188
-0.096875000000000003,-9.4197405833935761,-0.082913327521647442
-0.096850000000000006,-9.4197405833935761,-0.082913327521647442
-0.096825000000000008,-9.4197405833935761,-0.082913327521647442
-0.096799999999999997,-9.4197405833935761,-0.086630713268528697
-0.096775,-9.4197405833935761,-0.090348099015409938
-0.096750000000000003,-9.4197405833935761,-0.094065484762291193
-0.096725000000000005,-9.4197405833935761,-0.097782870509172434
-0.096700000000000008,-9.4234134250256076,-0.097782870509172434
-0.096674999999999997,-9.4234134250256076,-0.10150025625605538
-0.09665,-9.4234134250256076,-0.10521764200293493
-0.096625000000000003,-9.4270862666576374,-0.10893502774981619
-0.096600000000000005,-9.4270862666576374,-0.11265241349669743
-0.096575000000000008,-9.4307591082896689,-0.11265241349669743
-0.096549999999999997,-9.4270862666576374,-0.11636979924358037
-0.096525,-9.4270862666576374,-0.12008718499045994
-0.096500000000000002,-9.4270862666576374,-0.12008718499045994
-0.096475000000000005,-9.4307591082896689,-0.12752195648422243
-0.096450000000000008,-9.4307591082896689,-0.12752195648422243
-0.096424999999999997,-9.4307591082896689,-0.13123934223110367
-0.0964,-9.4307591082896689,-0.13123934223110367
-0.096375000000000002,-9.4344319499216986,-0.13123934223110367
-0.096350000000000005,-9.4344319499216986,-0.13495672797798491
-0.096325000000000008,-9.4307591082896689,-0.13867411372486618
-0.096299999999999997,-9.4344319499216986,-0.14239149947174912
-0.096274999999999999,-9.4344319499216986,-0.14610888521862866
-0.096250000000000002,-9.4344319499216986,-0.14610888521862866
-0.096225000000000005,-9.4381047915537284,-0.14982627096550993
-0.096200000000000008,-9.4381047915537284,-0.15354365671239117
-0.096174999999999997,-9.4381047915537284,-0.15726104245927411
-0.096149999999999999,-9.4381047915537284,-0.16097842820615366
-0.096125000000000002,-9.4381047915537284,-0.16469581395303493
-0.096100000000000005,-9.4417776331857599,-0.16469581395303493
-0.096075000000000008,-9.4417776331857599,-0.16841319969991617
-0.096049999999999996,-9.4417776331857599,-0.1721305854467991
-0.096024999999999999,-9.4417776331857599,-0.17584797119367868
-0.096000000000000002,-9.4417776331857599,-0.17584797119367868
-0.095975000000000005,-9.4417776331857599,-0.17956535694055992
-0.095950000000000008,-9.4417776331857599,-0.17956535694055992
-0.095924999999999996,-9.4454504748177897,-0.18328274268744285
-0.095899999999999999,-9.4454504748177897,-0.1870001284343224
-0.095875000000000002,-9.4454504748177897,-0.19071751418120367
-0.095850000000000005,-9.4454504748177897,-0.19443489992808491
-0.095825000000000007,-9.4417776331857599,-0.19443489992808491
-0.095799999999999996,-9.4417776331857599,-0.19815228567496784
-0.095774999999999999,-9.4417776331857599,-0.20186967142184739
-0.095750000000000002,-9.4454504748177897,-0.20186967142184739
-0.095725000000000005,-9.4454504748177897,-0.20558705716872866
-0.095700000000000007,-9.4454504748177897,-0.2093044429156099
-0.095674999999999996,-9.4491233164498212,-0.21302182866249114
-0.095649999999999999,-9.4491233164498212,-0.21302182866249114
-0.095625000000000002,-9.4491233164498212,-0.21673921440937241
-0.095600000000000004,-9.4491233164498212,-0.21673921440937241
-0.095575000000000007,-9.4491233164498212,-0.22045660015625365
-0.095549999999999996,-9.4527961580818491,-0.22417398590313489
-0.095524999999999999,-9.4491233164498212,-0.22417398590313489
-0.095500000000000002,-9.4527961580818509,-0.22417398590313489
-0.095475000000000004,-9.4527961580818509,-0.2316087573968974
-0.095450000000000007,-9.4527961580818509,-0.2316087573968974
-0.095424999999999996,-9.4564689997138824,-0.23532614314378034
-0.095399999999999999,-9.4564689997138824,-0.23904352889065988
-0.095375000000000001,-9.4564689997138824,-0.23904352889065988
-0.095350000000000004,-9.4564689997138824,-0.24647830038442239
-0.095325000000000007,-9.4564689997138824,-0.24647830038442239
-0.095299999999999996,-9.4564689997138842,-0.25019568613130366
-0.095274999999999999,-9.4601418413459122,-0.25019568613130366
-0.095250000000000001,-9.4564689997138824,-0.2539130718781849
-0.095225000000000004,-9.4601418413459122,-0.25763045762506614
-0.095200000000000007,-9.4601418413459122,-0.26134784337194739
-0.09517500000000001,-9.4601418413459122,-0.26506522911882696
-0.095149999999999998,-9.4601418413459122,-0.26506522911882863
-0.095125000000000001,-9.4601418413459122,-0.26878261486570987
-0.095100000000000004,-9.4564689997138824,-0.27250000061259111
-0.095075000000000007,-9.4601418413459122,-0.27250000061259111
-0.095050000000000009,-9.4601418413459122,-0.27621738635947074
-0.095024999999999998,-9.4601418413459122,-0.27993477210635365
-0.095000000000000001,-9.4601418413459122,-0.27993477210635365
-0.094975000000000004,-9.4601418413459122,-0.28365215785323489
-0.094950000000000007,-9.4601418413459122,-0.28736954360011613
-0.094925000000000009,-9.4601418413459122,-0.2910869293469957
-0.094899999999999998,-9.4601418413459122,-0.29480431509387861
-0.094875000000000001,-9.4601418413459122,-0.29480431509387861
-0.094850000000000004,-9.4638146829779437,-0.29852170084075985
-0.094825000000000007,-9.4638146829779437,-0.30223908658764115
-0.094800000000000009,-9.4638146829779437,-0.30595647233452072
-0.094774999999999998,-9.4638146829779437,-0.30967385808140363
-0.094750000000000001,-9.4638146829779437,-0.30967385808140363
-0.094725000000000004,-9.4601418413459122,-0.31339124382828487
-0.094700000000000006,-9.4601418413459122,-0.31710862957516611
-0.094675000000000009,-9.4638146829779419,-0.31710862957516611
-0.094649999999999998,-9.4674875246099734,-0.31710862957516611
-0.094625000000000001,-9.4674875246099734,-0.32082601532204735
-0.094600000000000004,-9.4674875246099734,-0.32454340106892859
-0.094575000000000006,-9.4711603662420032,-0.32826078681580989
-0.094550000000000009,-9.4711603662420032,-0.33197817256268947
-0.094524999999999998,-9.4674875246099734,-0.33197817256269113
-0.094500000000000001,-9.4711603662420032,-0.33569555830957237
-0.094475000000000003,-9.4711603662420032,-0.33941294405645361
-0.094450000000000006,-9.4711603662420032,-0.34313032980333485
-0.094425000000000009,-9.4674875246099752,-0.34684771555021443
-0.094399999999999998,-9.4711603662420032,-0.35056510129709734
-0.094375000000000001,-9.4711603662420032,-0.35056510129709734
-0.094350000000000003,-9.4674875246099734,-0.35428248704397863
-0.094325000000000006,-9.4711603662420032,-0.35428248704397863
-0.094300000000000009,-9.4711603662420032,-0.36171725853773773
-0.094274999999999998,-9.4674875246099734,-0.36171725853774112
-0.09425,-9.4674875246099734,-0.36543464428462236
-0.094225000000000003,-9.4674875246099734,-0.36543464428462236
-0.094200000000000006,-9.4711603662420032,-0.3691520300315036
-0.094175000000000009,-9.4711603662420032,-0.37286941577838317
-0.094149999999999998,-9.4711603662420032,-0.37658680152526608
