Data/1 Data at 4_1A.csv

#Digilent WaveForms Oscilloscope Acquisition
#Device Name: PlasmaStuff
#Serial Number: SN:210321A41FE0
#Date Time: 2018-11-27 16:29:38.254
#Sample rate: 40000Hz
#Samples: 8192
#Trigger: Source: Channel 2 Type: Edge Condition: Rising Level: 200 mV Hyst.: Auto HoldOff: 0 s
#Channel 1: Range: 2 V/div Offset: 8.6 V
#Channel 2: Range: 2 V/div Offset: 0 V

Time (s),Channel 1 (V),Channel 2 (V)
-0.10237500000000001,-7.2385322126446869,0.054629945112958767
-0.10235,-7.2458778959087411,0.050912559366075825
-0.102325,-7.2311865293806266,0.047195173619196271
-0.1023,-7.2385322126446869,0.043477787872315016
-0.102275,-7.2568964208048401,0.043477787872315016
-0.10225000000000001,-7.267914945700932,0.039760402125433768
-0.102225,-7.275260628964987,0.036043016378550827
-0.1022,-7.2642421040689005,0.032325630631671272
-0.102175,-7.2311865293806266,0.028608244884790024
-0.10215,-7.2348593710126572,0.024890859137908776
-0.10212500000000001,-7.2495507375407788,0.024890859137908776
-0.1021,-7.2605692624368761,0.021173473391027525
-0.102075,-7.2715877873329617,0.021173473391027525
-0.10205,-7.278933470597023,0.017456087644146277
-0.102025,-7.2826063122290536,0.013738701897265029
-0.10200000000000001,-7.2899519954931149,0.010021316150383779
-0.101975,-7.2972976787571771,0.010021316150382089
-0.10195,-7.3009705203892068,0.0063039304035025301
-0.101925,-7.3083162036532672,0.0063039304035025301
-0.1019,-7.3156618869173284,-0.0011308410902599675
-0.10187500000000001,-7.3156618869173284,-0.0011308410902599675
-0.10185,-7.2495507375407655,-0.0048482268371429068
-0.101825,-7.2201680044845347,-0.008565612584022466
-0.1018,-7.2642421040689005,-0.012282998330903714
-0.101775,-7.2862791538610843,-0.016000384077784962
-0.10175000000000001,-7.3046433620212365,-0.019717769824666213
-0.101725,-7.3303532534454572,-0.019717769824667903
-0.1017,-7.3450446199735726,-0.023435155571547461
-0.101675,-7.3560631448696636,-0.027152541318428709
-0.10165,-7.3634088281337249,-0.030869927065309957
-0.10162500000000001,-7.3707545113977861,-0.030869927065309957
-0.1016,-7.3781001946618492,-0.038304698559072453
-0.101575,-7.381773036293878,-0.038304698559072453
-0.10155,-7.3854458779259087,-0.042022084305953708
-0.101525,-7.3891187195579384,-0.045739470052834956
-0.10150000000000001,-7.3927915611899699,-0.045739470052834956
-0.10147500000000001,-7.3964644028219979,-0.045739470052834956
-0.10145,-7.3964644028219997,-0.053174241546597452
-0.101425,-7.4001372444540303,-0.0568916272934787
-0.1014,-7.4038100860860609,-0.0568916272934787
-0.10137500000000001,-7.4074829277180916,-0.060609013040359955
-0.10135000000000001,-7.4038100860860627,-0.064326398787239503
-0.101325,-7.4074829277180916,-0.068043784534122451
-0.1013,-7.4148286109821528,-0.071761170281003692
-0.101275,-7.4185014526141835,-0.075478556027884947
-0.10125000000000001,-7.4258471358782439,-0.075478556027884947
-0.10122500000000001,-7.4295199775102727,-0.079195941774764494
-0.1012,-7.4295199775102745,-0.082913327521647442
-0.101175,-7.4331928191423051,-0.086630713268528697
-0.10115,-7.4368656607743358,-0.086630713268528697
-0.10112500000000001,-7.4368656607743358,-0.094065484762291193
-0.10110000000000001,-7.4442113440383935,-0.094065484762291193
-0.101075,-7.444211344038397,-0.097782870509172434
-0.10105,-7.4478841856704268,-0.097782870509172434
-0.101025,-7.4515570273024583,-0.10150025625605369
-0.10100000000000001,-7.455229868934488,-0.10150025625605369
-0.10097500000000001,-7.4589027105665169,-0.1089350277498128
-0.10095,-7.4589027105665187,-0.10893502774981619
-0.100925,-7.4625755521985493,-0.11265241349669743
-0.1009,-7.4699212354626106,-0.11265241349669743
-0.10087500000000001,-7.4735940770946412,-0.11636979924357868
-0.10085000000000001,-7.4735940770946412,-0.12008718499045824
-0.100825,-7.4735940770946412,-0.12008718499045994
-0.1008,-7.4772669187266718,-0.12380457073734119
-0.100775,-7.4809397603587016,-0.12752195648422243
-0.10075000000000001,-7.4809397603587016,-0.13123934223110367
-0.10072500000000001,-7.4809397603587016,-0.13495672797798322
-0.1007,-7.4846126019907331,-0.13867411372486618
-0.100675,-7.4919582852547935,-0.13867411372486618
-0.10065,-7.4919582852547935,-0.14239149947174742
-0.10062500000000001,-7.4956311268868241,-0.14610888521862866
-0.10060000000000001,-7.4993039685188529,-0.14982627096550824
-0.100575,-7.5029768101508854,-0.14982627096550993
-0.10055,-7.506649651782916,-0.15354365671239117
-0.100525,-7.506649651782916,-0.15354365671239117
-0.10050000000000001,-7.506649651782916,-0.15726104245927242
-0.10047500000000001,-7.5103224934149448,-0.16097842820615196
-0.10045,-7.5139953350469764,-0.16097842820615366
-0.100425,-7.5103224934149466,-0.16469581395303493
-0.1004,-7.5103224934149466,-0.16841319969991617
-0.10037500000000001,-7.5139953350469764,-0.17213058544679741
-0.10035000000000001,-7.5176681766790052,-0.17584797119367698
-0.100325,-7.517668176679007,-0.17584797119367868
-0.1003,-7.5250138599430683,-0.17956535694055992
-0.100275,-7.5250138599430683,-0.18328274268744116
-0.10025000000000001,-7.5286867015750989,-0.1870001284343224
-0.10022500000000001,-7.5286867015750989,-0.19071751418120197
-0.1002,-7.5323595432071295,-0.19071751418120367
-0.100175,-7.5360323848391602,-0.19443489992808491
-0.10015,-7.5360323848391602,-0.19815228567496615
-0.10012500000000001,-7.5397052264711899,-0.20186967142184739
-0.10010000000000001,-7.5397052264711899,-0.20186967142184739
-0.100075,-7.5397052264711899,-0.20558705716872866
-0.10005,-7.5433780681032214,-0.20186967142184739
-0.100025,-7.5433780681032214,-0.2093044429156099
-0.10000000000000001,-7.5470509097352512,-0.21302182866249114
-0.099975000000000008,-7.5470509097352512,-0.21302182866249114
-0.099949999999999997,-7.5507237513672818,-0.21673921440937241
-0.099925,-7.5507237513672818,-0.21673921440937241
-0.099900000000000003,-7.5507237513672818,-0.22045660015625365
-0.099875000000000005,-7.5543965929993124,-0.22417398590313489
-0.099850000000000008,-7.5580694346313431,-0.22789137165001613
-0.099824999999999997,-7.5580694346313431,-0.22789137165001613
-0.0998,-7.5580694346313431,-0.2316087573968974
-0.099775000000000003,-7.5507237513672818,-0.23532614314377864
-0.099750000000000005,-7.5433780681032214,-0.23904352889065988
-0.099725000000000008,-7.5543965929993124,-0.23904352889065988
-0.099699999999999997,-7.5580694346313448,-0.24276091463754285
-0.099675,-7.5617422762633737,-0.24647830038442239
-0.099650000000000002,-7.5654151178954043,-0.24647830038442239
-0.099625000000000005,-7.5727608011594647,-0.25019568613130366
-0.099600000000000008,-7.5727608011594647,-0.2539130718781849
-0.099574999999999997,-7.5764336427914927,-0.2539130718781849
-0.09955,-7.569087959527435,-0.2539130718781849
-0.099525000000000002,-7.569087959527435,-0.26134784337194739
-0.099500000000000005,-7.5727608011594647,-0.26134784337194739
-0.099475000000000008,-7.5654151178954043,-0.26134784337194739
-0.099449999999999997,-7.5690879595274385,-0.26506522911883029
-0.099424999999999999,-7.5764336427914962,-0.26878261486570987
-0.099400000000000002,-7.580106484423526,-0.27250000061259111
-0.099375000000000005,-7.580106484423526,-0.27621738635947241
-0.099350000000000008,-7.5837793260555566,-0.27993477210635365
-0.099324999999999997,-7.587452167687589,-0.27993477210635703
-0.099299999999999999,-7.5911250093196179,-0.28736954360011613
-0.099275000000000002,-7.5911250093196179,-0.28736954360011613
-0.099250000000000005,-7.5947978509516485,-0.29108692934699737
-0.099225000000000008,-7.5984706925836791,-0.29480431509387861
-0.099199999999999997,-7.5984706925836791,-0.29852170084075985
-0.099174999999999999,-7.5984706925836791,-0.29852170084075985
-0.099150000000000002,-7.6021435342157098,-0.30223908658764115
-0.099125000000000005,-7.6021435342157098,-0.30223908658764115
-0.099100000000000008,-7.6021435342157098,-0.30967385808140363
-0.099074999999999996,-7.5984706925836809,-0.30967385808140363
-0.099049999999999999,-7.6021435342157098,-0.30967385808140363
-0.099025000000000002,-7.6058163758477395,-0.31339124382828487
-0.099000000000000005,-7.6058163758477395,-0.31710862957516611
-0.098975000000000007,-7.6094892174797701,-0.32082601532204735
-0.098949999999999996,-7.6094892174797701,-0.32082601532204902
-0.098924999999999999,-7.6094892174797701,-0.32454340106892859
-0.098900000000000002,-7.6094892174797701,-0.32826078681580989
-0.098875000000000005,-7.6094892174797701,-0.33197817256269113
-0.098850000000000007,-7.6131620591118008,-0.33197817256269113
-0.098824999999999996,-7.6131620591117937,-0.33941294405645361
-0.098799999999999999,-7.5984706925836791,-0.33941294405645361
-0.098775000000000002,-7.5764336427914962,-0.34313032980333485
-0.098750000000000004,-7.5984706925836791,-0.3468477155502161
-0.098725000000000007,-7.6094892174797701,-0.35056510129709734
-0.098699999999999996,-7.6168349007438314,-0.35428248704397863
-0.098674999999999999,-7.6168349007438314,-0.35428248704397863
-0.098650000000000002,-7.6168349007438314,-0.35799987279085987
-0.098625000000000004,-7.620507742375862,-0.35799987279085987
-0.098600000000000007,-7.6168349007438314,-0.36171725853774112
-0.098574999999999996,-7.620507742375862,-0.3617172585377445
-0.098549999999999999,-7.620507742375862,-0.3691520300315036
-0.098525000000000001,-7.6094892174797701,-0.3691520300315036
-0.098500000000000004,-7.6131620591118008,-0.37286941577838484
-0.098475000000000007,-7.620507742375862,-0.37658680152526608
-0.098449999999999996,-7.6278534256399233,-0.37658680152526774
-0.098424999999999999,-7.6278534256399233,-0.38030418727214732
-0.098400000000000001,-7.6315262672719539,-0.38402157301902862
-0.098375000000000004,-7.6315262672719539,-0.38773895876590986
-0.098350000000000007,-7.6315262672719539,-0.38773895876590986
-0.09832500000000001,-7.6315262672719539,-0.39145634451278943
-0.098299999999999998,-7.6278534256399233,-0.39517373025967234
-0.098275000000000001,-7.6315262672719539,-0.39889111600655358
-0.098250000000000004,-7.6315262672719539,-0.39889111600655358
-0.098225000000000007,-7.6388719505360143,-0.40260850175343482
-0.09820000000000001,-7.6425447921680432,-0.4063258875003144
-0.098174999999999998,-7.6425447921680449,-0.41004327324719736
-0.098150000000000001,-7.6425447921680449,-0.4137606589940786
-0.098125000000000004,-7.6425447921680449,-0.4137606589940786
-0.098100000000000007,-7.6425447921680449,-0.4137606589940786
-0.098075000000000009,-7.6462176338000738,-0.41747804474095818
-0.098049999999999998,-7.6462176338000756,-0.42119543048784108
-0.098025000000000001,-7.6462176338000756,-0.42119543048784108
-0.098000000000000004,-7.6498904754321062,-0.42863020198160356
-0.097975000000000007,-7.6498904754321062,-0.43234758772848481
-0.097950000000000009,-7.6498904754321062,-0.43234758772848481
-0.097924999999999998,-7.6498904754321062,-0.4360649734753661
-0.097900000000000001,-7.6462176338000756,-0.43978235922224734
-0.097875000000000004,-7.6425447921680449,-0.43978235922224734
-0.097850000000000006,-7.6462176338000756,-0.44349974496912858
-0.097825000000000009,-7.6498904754321044,-0.44721713071600816
-0.097799999999999998,-7.6535633170641368,-0.45093451646289107
-0.097775000000000001,-7.6535633170641368,-0.45465190220977231
-0.097750000000000004,-7.6572361586961675,-0.45836928795665355
-0.097725000000000006,-7.6535633170641368,-0.45836928795665355
-0.097700000000000009,-7.6572361586961657,-0.46208667370353318
-0.097674999999999998,-7.6535633170641368,-0.46580405945041609
-0.097650000000000001,-7.6572361586961675,-0.46952144519729733
-0.097625000000000003,-7.6609090003281981,-0.46952144519729733
-0.097600000000000006,-7.6609090003281981,-0.47323883094417857
-0.097575000000000009,-7.6572361586961692,-0.47695621669105814
-0.097549999999999998,-7.6572361586961675,-0.48067360243794105
-0.097525000000000001,-7.6572361586961675,-0.48439098818482229
-0.097500000000000003,-7.6609090003281981,-0.48439098818482229
-0.097475000000000006,-7.6645818419602278,-0.48810837393170359
-0.097450000000000009,-7.6645818419602278,-0.49182575967858316
-0.097424999999999998,-7.6609090003281981,-0.49554314542546607
-0.0974,-7.6645818419602278,-0.49554314542546607
-0.097375000000000003,-7.6645818419602278,-0.50297791691922855
-0.097350000000000006,-7.6682546835922585,-0.50669530266610985
-0.097325000000000009,-7.6682546835922585,-0.50669530266610985
-0.097299999999999998,-7.6645818419602278,-0.51041268841299114
-0.097275,-7.6572361586961675,-0.51413007415987222
-0.097250000000000003,-7.6535633170641368,-0.51784745990675352
-0.097225000000000006,-7.6498904754321062,-0.52156484565363481
-0.097200000000000009,-7.6572361586961639,-0.52528223140051444
-0.097174999999999997,-7.6645818419602278,-0.52899961714739741
-0.09715,-7.6682546835922585,-0.52899961714739741
-0.097125000000000003,-7.6719275252242891,-0.53271700289427848
-0.097100000000000006,-7.6719275252242891,-0.53271700289427848
-0.097075000000000009,-7.6719275252242891,-0.53643438864115811
-0.097049999999999997,-7.6682546835922585,-0.54015177438804107
-0.097025,-7.6645818419602278,-0.54015177438804107
-0.097000000000000003,-7.6719275252242891,-0.54015177438804107
-0.096975000000000006,-7.6719275252242891,-0.53643438864115978
-0.096950000000000008,-7.6719275252242891,-0.53271700289427848
-0.096924999999999997,-7.6719275252242891,-0.53271700289427848
-0.0969,-7.6719275252242891,-0.52899961714739741
-0.096875000000000003,-7.6719275252242891,-0.52528223140051611
-0.096850000000000006,-7.6756003668563197,-0.52528223140051611
-0.096825000000000008,-7.6756003668563197,-0.52528223140051611
-0.096799999999999997,-7.6719275252242891,-0.52156484565363481
-0.096775,-7.6645818419602278,-0.52156484565363481
-0.096750000000000003,-7.6609090003281981,-0.51413007415987222
-0.096725000000000005,-7.6609090003281981,-0.51784745990675352
-0.096700000000000008,-7.6682546835922585,-0.51041268841299114
-0.096674999999999997,-7.6572361586961675,-0.51041268841298781
-0.09665,-7.6572361586961675,-0.50297791691922855
-0.096625000000000003,-7.6609090003281981,-0.50297791691922855
-0.096600000000000005,-7.6645818419602278,-0.49926053117234731
-0.096575000000000008,-7.6682546835922585,-0.49926053117234731
-0.096549999999999997,-7.6572361586961541,-0.4955431454254644
-0.096525,-7.6278534256399233,-0.49182575967858483
-0.096500000000000002,-7.6094892174797701,-0.48810837393170359
-0.096475000000000005,-7.6278534256399233,-0.48810837393170359
-0.096450000000000008,-7.6425447921680449,-0.48439098818482229
-0.096424999999999997,-7.6535633170641404,-0.48439098818482063
-0.0964,-7.6609090003281981,-0.48067360243794105
-0.096375000000000002,-7.6609090003281981,-0.48067360243794105
-0.096350000000000005,-7.6645818419602278,-0.47695621669105981
-0.096325000000000008,-7.6645818419602278,-0.47323883094417857
-0.096299999999999997,-7.6645818419602278,-0.4732388309441769
-0.096274999999999999,-7.6645818419602278,-0.46952144519729733
-0.096250000000000002,-7.6645818419602278,-0.46580405945041609
-0.096225000000000005,-7.6645818419602278,-0.46208667370353484
-0.096200000000000008,-7.6609090003281981,-0.45836928795665355
-0.096174999999999997,-7.6535633170641271,-0.45465190220977064
-0.096149999999999999,-7.6315262672719539,-0.45093451646289107
-0.096125000000000002,-7.6351991089039846,-0.45093451646289107
-0.096100000000000005,-7.6425447921680449,-0.44721713071600983
-0.096075000000000008,-7.6535633170641368,-0.44721713071600983
-0.096049999999999996,-7.6535633170641351,-0.44349974496912692
-0.096024999999999999,-7.6498904754321062,-0.43978235922224734
-0.096000000000000002,-7.6535633170641368,-0.43978235922224734
-0.095975000000000005,-7.6498904754321062,-0.4360649734753661
-0.095950000000000008,-7.6498904754321062,-0.43234758772848481
-0.095924999999999996,-7.6535633170641333,-0.42863020198160356
-0.095899999999999999,-7.6462176338000756,-0.42863020198160356
-0.095875000000000002,-7.6498904754321062,-0.42491281623472232
-0.095850000000000005,-7.6498904754321062,-0.42119543048784108
-0.095825000000000007,-7.6498904754321062,-0.41747804474095984
-0.095799999999999996,-7.6462176338000738,-0.41747804474095818
-0.095774999999999999,-7.6425447921680449,-0.4137606589940786
-0.095750000000000002,-7.6425447921680449,-0.41004327324719736
-0.095725000000000005,-7.6462176338000756,-0.41004327324719736
-0.095700000000000007,-7.6388719505360143,-0.40632588750031606
-0.095674999999999996,-7.6388719505360143,-0.40260850175343144
-0.095649999999999999,-7.6388719505360143,-0.39517373025967234
-0.095625000000000002,-7.6388719505360143,-0.39517373025967234
-0.095600000000000004,-7.6388719505360143,-0.39517373025967234
-0.095575000000000007,-7.6351991089039846,-0.3914563445127911
-0.095549999999999996,-7.6388719505360143,-0.39145634451278943
-0.095524999999999999,-7.6388719505360143,-0.38773895876590986
-0.095500000000000002,-7.6388719505360143,-0.38402157301902862
-0.095475000000000004,-7.6388719505360143,-0.38402157301902862
-0.095450000000000007,-7.6388719505360143,-0.38030418727214732
-0.095424999999999996,-7.6351991089039846,-0.37658680152526608
-0.095399999999999999,-7.6351991089039846,-0.37658680152526608
-0.095375000000000001,-7.6351991089039846,-0.37286941577838484
-0.095350000000000004,-7.6351991089039846,-0.3691520300315036
-0.095325000000000007,-7.6351991089039846,-0.36543464428462236
-0.095299999999999996,-7.6315262672719504,-0.36543464428462069
-0.095274999999999999,-7.6241805840078927,-0.36171725853774112
-0.095250000000000001,-7.620507742375862,-0.35799987279085987
-0.095225000000000004,-7.620507742375862,-0.35799987279085987
-0.095200000000000007,-7.6241805840078927,-0.35056510129709734
-0.09517500000000001,-7.6241805840078927,-0.34684771555021776
-0.095149999999999998,-7.6241805840078927,-0.3468477155502161
-0.095125000000000001,-7.6241805840078927,-0.34313032980333485
-0.095100000000000004,-7.6241805840078927,-0.34313032980333485
-0.095075000000000007,-7.6168349007438314,-0.33569555830957237
-0.095050000000000009,-7.6094892174797737,-0.33569555830957237
-0.095024999999999998,-7.6131620591118008,-0.33197817256269113
-0.095000000000000001,-7.6168349007438314,-0.33197817256269113
-0.094975000000000004,-7.6168349007438314,-0.32826078681580989
-0.094950000000000007,-7.6094892174797701,-0.32454340106892859
-0.094925000000000009,-7.6021435342157133,-0.32454340106892859
-0.094899999999999998,-7.6094892174797701,-0.32082601532204735
-0.094875000000000001,-7.6058163758477395,-0.31710862957516611
-0.094850000000000004,-7.6094892174797701,-0.31339124382828487
-0.094825000000000007,-7.6094892174797701,-0.31339124382828487
-0.094800000000000009,-7.6094892174797701,-0.3096738580814053
-0.094774999999999998,-7.6058163758477395,-0.30595647233452239
-0.094750000000000001,-7.6021435342157098,-0.30595647233452239
-0.094725000000000004,-7.6058163758477395,-0.30223908658764115
-0.094700000000000006,-7.6058163758477395,-0.29480431509387861
-0.094675000000000009,-7.6058163758477395,-0.29108692934699903
-0.094649999999999998,-7.6058163758477395,-0.29108692934699737
-0.094625000000000001,-7.5947978509516485,-0.29108692934699737
-0.094600000000000004,-7.5837793260555566,-0.28736954360011613
-0.094575000000000006,-7.5874521676875872,-0.28365215785323489
-0.094550000000000009,-7.5911250093196161,-0.28365215785323489
-0.094524999999999998,-7.5911250093196179,-0.27993477210635365
-0.094500000000000001,-7.5874521676875872,-0.27621738635947241
-0.094475000000000003,-7.5874521676875872,-0.27250000061259111
-0.094450000000000006,-7.5911250093196179,-0.26878261486570987
-0.094425000000000009,-7.587452167687589,-0.26878261486570987
-0.094399999999999998,-7.5837793260555566,-0.26506522911882863
-0.094375000000000001,-7.569087959527435,-0.26134784337194739
-0.094350000000000003,-7.5654151178954043,-0.25763045762506614
-0.094325000000000006,-7.569087959527435,-0.25763045762506614
-0.094300000000000009,-7.5727608011594629,-0.25391307187818657
-0.094274999999999998,-7.5764336427914962,-0.25019568613130366
-0.09425,-7.5764336427914962,-0.24647830038442239
-0.094225000000000003,-7.5727608011594647,-0.24276091463754115
