Data/2 Data at 3_4A.csv

#Digilent WaveForms Oscilloscope Acquisition
#Device Name: PlasmaStuff
#Serial Number: SN:210321A41FE0
#Date Time: 2018-11-28 20:24:39.597
#Sample rate: 40000Hz
#Samples: 8192
#Trigger: Source: Channel 2 Type: Edge Condition: Rising Level: 200 mV Hyst.: Auto HoldOff: 0 s
#Channel 1: Range: 2 V/div Offset: 9.62 V
#Channel 2: Range: 2 V/div Offset: 0 V

Time (s),Channel 1 (V),Channel 2 (V)
-0.10238750000000001,-8.9239069630694559,0.63082473587955223
-0.1023625,-8.9275798047014874,0.6233899643857882
-0.1023375,-8.9312526463335171,0.61967257863890857
-0.1023125,-8.9349254879655469,0.61967257863890857
-0.1022875,-8.9385983295975784,0.61595519289202727
-0.10226250000000001,-8.9422711712296081,0.6122378071451462
-0.1022375,-8.9422711712296099,0.61223780714514453
-0.1022125,-8.9459440128616379,0.6085204213982649
-0.1021875,-8.9496168544936694,0.6048030356513836
-0.1021625,-8.9532896961256991,0.60108564990450231
-0.10213750000000001,-8.9569625377577307,0.59736826415762101
-0.10211249999999999,-8.9569625377577307,0.59736826415761934
-0.1020875,-8.9569625377577307,0.59365087841073994
-0.1020625,-8.9606353793897604,0.58993349266385864
-0.1020375,-8.9606353793897604,0.58621610691697734
-0.10201250000000001,-8.9643082210217919,0.58249872117009605
-0.10198749999999999,-8.9679810626538234,0.58249872117009438
-0.1019625,-8.9716539042858532,0.57878133542321475
-0.1019375,-8.9753267459178829,0.57506394967633367
-0.1019125,-8.9753267459178829,0.57134656392945238
-0.10188750000000001,-8.9789995875499127,0.56762917818257108
-0.10186249999999999,-8.9789995875499127,0.56762917818256942
-0.1018375,-8.9789995875499127,0.56391179243568978
-0.1018125,-8.9826724291819442,0.56019440668880871
-0.1017875,-8.9826724291819442,0.55647702094192741
-0.10176250000000001,-8.9863452708139739,0.55275963519504612
-0.10173749999999999,-8.9900181124460055,0.55275963519504445
-0.1017125,-8.9900181124460055,0.54904224944816482
-0.1016875,-8.9936909540780352,0.54532486370128352
-0.1016625,-8.9973637957100667,0.53789009220752115
-0.10163750000000001,-9.0010366373420965,0.53789009220752115
-0.10161249999999999,-9.0010366373420982,0.53417270646063819
-0.1015875,-9.004709478974128,0.53045532071375856
-0.1015625,-9.0083823206061577,0.52673793496687726
-0.1015375,-9.0083823206061577,0.52302054921999619
-0.10151250000000001,-9.0120551622381875,0.52302054921999619
-0.10148750000000001,-9.0157280038702172,0.51558577772623693
-0.1014625,-9.015728003870219,0.5155857777262336
-0.1014375,-9.0194008455022487,0.5118683919793523
-0.1014125,-9.0230736871342803,0.50815100623247123
-0.10138750000000001,-9.02674652876631,0.50443362048558993
-0.10136250000000001,-9.02674652876631,0.5007162347387103
-0.1013375,-9.02674652876631,0.49699884899182739
-0.1013125,-9.0304193703983415,0.49328146324494615
-0.1012875,-9.0304193703983415,0.48956407749806485
-0.10126250000000001,-9.0340922120303713,0.48956407749806485
-0.10123750000000001,-9.0340922120303713,0.48584669175118528
-0.1012125,-9.0340922120303713,0.48212930600430237
-0.1011875,-9.037765053662401,0.47841192025742113
-0.1011625,-9.037765053662401,0.47469453451053989
-0.10113750000000001,-9.037765053662401,0.47097714876365865
-0.10111250000000001,-9.0414378952944308,0.47097714876365865
-0.1010875,-9.0414378952944325,0.46725976301677741
-0.1010625,-9.0451107369264623,0.46354237726989611
-0.1010375,-9.0451107369264623,0.45982499152301487
-0.10101250000000001,-9.0487835785584938,0.45610760577613363
-0.10098750000000001,-9.0524564201905218,0.45239022002925405
-0.1009625,-9.0524564201905235,0.44867283428237115
-0.1009375,-9.0561292618225551,0.44495544853548991
-0.1009125,-9.0561292618225551,0.44123806278860866
-0.1008875,-9.0598021034545848,0.43752067704172737
-0.10086250000000001,-9.0634749450866146,0.43380329129484779
-0.1008375,-9.0634749450866163,0.43008590554796489
-0.1008125,-9.0671477867186461,0.43008590554796489
-0.1007875,-9.0671477867186461,0.42636851980108365
-0.1007625,-9.0671477867186461,0.4226511340542024
-0.10073750000000001,-9.0671477867186461,0.41893374830732283
-0.1007125,-9.0708206283506758,0.41521636256043992
-0.1006875,-9.0744934699827073,0.41149897681355863
-0.1006625,-9.0744934699827073,0.40778159106667738
-0.1006375,-9.0744934699827073,0.40406420531979614
-0.10061250000000001,-9.0781663116147353,0.40034681957291657
-0.1005875,-9.0818391532467686,0.39662943382603366
-0.1005625,-9.0818391532467686,0.39291204807915242
-0.1005375,-9.0855119948787983,0.39291204807915242
-0.1005125,-9.0855119948787983,0.38547727658538988
-0.10048750000000001,-9.0891848365108281,0.38547727658538988
-0.1004625,-9.0891848365108299,0.38175989083850864
-0.1004375,-9.0891848365108299,0.37432511934474616
-0.1004125,-9.0928576781428596,0.37432511934474616
-0.1003875,-9.0928576781428596,0.37060773359786492
-0.10036250000000001,-9.0965305197748894,0.37060773359786492
-0.1003375,-9.0965305197748911,0.36689034785098368
-0.1003125,-9.1002033614069209,0.36317296210410244
-0.1002875,-9.1002033614069209,0.3594555763572212
-0.1002625,-9.1038762030389506,0.3557381906103399
-0.10023750000000001,-9.1038762030389506,0.35202080486346032
-0.1002125,-9.1075490446709821,0.34830341911657742
-0.1001875,-9.1075490446709821,0.34458603336969618
-0.1001625,-9.1112218863030119,0.34086864762281494
-0.1001375,-9.1112218863030119,0.33715126187593369
-0.10011250000000001,-9.1148947279350434,0.33715126187593369
-0.1000875,-9.1148947279350434,0.33343387612905245
-0.1000625,-9.1148947279350434,0.32971649038217116
-0.1000375,-9.1185675695670731,0.32599910463528992
-0.1000125,-9.1185675695670731,0.32228171888840867
-0.099987500000000007,-9.1222404111991047,0.31856433314152743
-0.099962499999999996,-9.1259132528311344,0.31484694739464619
-0.099937499999999999,-9.1222404111991047,0.31112956164776495
-0.099912500000000001,-9.1259132528311344,0.30741217590088371
-0.099887500000000004,-9.1259132528311344,0.30741217590088371
-0.099862500000000007,-9.1259132528311344,0.30369479015400241
-0.099837499999999996,-9.1295860944631642,0.29997740440712117
-0.099812499999999998,-9.1295860944631642,0.29626001866023993
-0.099787500000000001,-9.1295860944631642,0.29254263291335869
-0.099762500000000004,-9.1332589360951957,0.28882524716647745
-0.099737500000000007,-9.1332589360951957,0.28510786141959621
-0.099712499999999996,-9.1332589360951957,0.2813904756727133
-0.099687499999999998,-9.1332589360951957,0.27767308992583367
-0.099662500000000001,-9.1369317777272254,0.27767308992583367
-0.099637500000000004,-9.1369317777272254,0.27023831843207119
-0.099612500000000007,-9.1406046193592569,0.26652093268518995
-0.099587499999999995,-9.1406046193592569,0.26652093268518656
-0.099562499999999998,-9.1406046193592569,0.25908616119142747
-0.099537500000000001,-9.1442774609912867,0.25908616119142747
-0.099512500000000004,-9.1442774609912867,0.25165138969766498
-0.099487500000000006,-9.1442774609912867,0.24793400395078372
-0.099462499999999995,-9.1479503026233164,0.24793400395078372
-0.099437499999999998,-9.1442774609912867,0.24793400395078372
-0.099412500000000001,-9.1479503026233182,0.24421661820390245
-0.099387500000000004,-9.1479503026233182,0.24049923245702121
-0.099362500000000006,-9.1479503026233182,0.23678184671013996
-0.099337499999999995,-9.14795030262332,0.233064460963257
-0.099312499999999998,-9.151623144255348,0.22934707521637746
-0.099287500000000001,-9.151623144255348,0.22562968946949621
-0.099262500000000004,-9.1552959858873795,0.22191230372261497
-0.099237500000000006,-9.1552959858873795,0.2181949179757337
-0.099212499999999995,-9.1552959858873812,0.21819491797573201
-0.099187499999999998,-9.1589688275194092,0.21447753222885246
-0.099162500000000001,-9.1589688275194092,0.21076014648197122
-0.099137500000000003,-9.1589688275194092,0.20704276073508995
-0.099112500000000006,-9.1589688275194092,0.20332537498820871
-0.099087499999999995,-9.162641669151439,0.19960798924132747
-0.099062499999999998,-9.162641669151439,0.19960798924132747
-0.099037500000000001,-9.162641669151439,0.19589060349444623
-0.099012500000000003,-9.162641669151439,0.19217321774756496
-0.098987500000000006,-9.1663145107834705,0.18845583200068372
-0.098962499999999995,-9.1663145107834723,0.18845583200068033
-0.098937499999999998,-9.1699873524155002,0.18102106050692124
-0.0989125,-9.1699873524155002,0.18102106050692124
-0.098887500000000003,-9.1736601940475317,0.17730367476003997
-0.098862500000000006,-9.1699873524155002,0.16986890326627749
-0.098837499999999995,-9.1736601940475317,0.16986890326627579
-0.098812499999999998,-9.1736601940475317,0.16615151751939622
-0.0987875,-9.1736601940475317,0.16243413177251498
-0.098762500000000003,-9.1736601940475317,0.15871674602563374
-0.098737500000000006,-9.1736601940475317,0.1549993602787525
-0.098712499999999995,-9.1773330356795615,0.15128197453186953
-0.098687499999999997,-9.1773330356795615,0.14756458878498999
-0.0986625,-9.1773330356795615,0.14384720303810875
-0.098637500000000003,-9.181005877311593,0.14012981729122748
-0.098612500000000006,-9.1773330356795615,0.13641243154434624
-0.098587499999999995,-9.181005877311593,0.13641243154434454
-0.098562499999999997,-9.181005877311593,0.13269504579746499
-0.0985375,-9.1846787189436228,0.12897766005058375
-0.098512500000000003,-9.1846787189436228,0.12526027430370251
-0.098487500000000006,-9.1846787189436228,0.12526027430370251
-0.098462499999999994,-9.1846787189436228,0.12154288855681955
-0.098437499999999997,-9.1846787189436228,0.11782550280993999
-0.0984125,-9.1846787189436228,0.11410811706305875
-0.098387500000000003,-9.1883515605756543,0.11039073131617749
-0.098362500000000005,-9.1883515605756543,0.11039073131617749
-0.098337500000000008,-9.1883515605756543,0.10667334556929794
-0.098312499999999997,-9.192024402207684,0.102955959822415
-0.0982875,-9.192024402207684,0.099238574075533756
-0.098262500000000003,-9.192024402207684,0.095521188328652501
-0.098237500000000005,-9.192024402207684,0.09180380258177126
-0.098212500000000008,-9.192024402207684,0.088086416834891698
-0.098187499999999997,-9.1956972438397138,0.088086416834890005
-0.0981625,-9.1956972438397138,0.08436903108800875
-0.098137500000000003,-9.1956972438397138,0.076934259594246254
-0.098112500000000005,-9.1956972438397138,0.073216873847365013
-0.098087500000000008,-9.1956972438397138,0.073216873847365013
-0.098062499999999997,-9.1993700854717453,0.069499488100483758
-0.0980375,-9.1993700854717453,0.065782102353602517
-0.098012500000000002,-9.1993700854717453,0.065782102353602517
-0.097987500000000005,-9.1993700854717453,0.058347330859840014
-0.097962500000000008,-9.1993700854717453,0.05462994511296046
-0.097937499999999997,-9.1993700854717453,0.054629945112958767
-0.0979125,-9.203042927103775,0.050912559366077519
-0.097887500000000002,-9.203042927103775,0.047195173619196271
-0.097862500000000005,-9.203042927103775,0.043477787872315016
-0.097837500000000008,-9.2067157687358048,0.039760402125435461
-0.097812499999999997,-9.2067157687358065,0.03604301637855252
-0.097787499999999999,-9.203042927103775,0.032325630631671272
-0.097762500000000002,-9.2067157687358065,0.032325630631671272
-0.097737500000000005,-9.2067157687358065,0.028608244884790024
-0.097712500000000008,-9.2103886103678345,0.024890859137910466
-0.097687499999999997,-9.2103886103678363,0.021173473391027525
-0.097662499999999999,-9.2067157687358065,0.017456087644146277
-0.097637500000000002,-9.2067157687358065,0.013738701897265029
-0.097612500000000005,-9.2103886103678363,0.013738701897265029
-0.097587500000000008,-9.2103886103678363,0.013738701897265029
-0.097562499999999996,-9.2140614519998678,0.010021316150383779
-0.097537499999999999,-9.2140614519998678,0.0063039304035025301
-0.097512500000000002,-9.2140614519998678,-0.0011308410902599675
-0.097487500000000005,-9.2140614519998678,-0.0011308410902599675
-0.097462500000000007,-9.2140614519998678,-0.0048482268371395259
-0.097437499999999996,-9.2140614519998678,-0.008565612584022466
-0.097412499999999999,-9.2140614519998678,-0.012282998330903714
-0.097387500000000002,-9.2177342936318976,-0.016000384077784962
-0.097362500000000005,-9.2177342936318976,-0.016000384077784962
-0.097337500000000007,-9.2177342936318976,-0.023435155571544082
-0.097312499999999996,-9.2177342936318976,-0.023435155571547461
-0.097287499999999999,-9.2177342936318976,-0.027152541318428709
-0.097262500000000002,-9.2177342936318976,-0.034587312812191205
-0.097237500000000004,-9.2177342936318976,-0.034587312812191205
-0.097212500000000007,-9.2177342936318976,-0.03830469855907076
-0.097187499999999996,-9.2177342936318976,-0.042022084305953708
-0.097162499999999999,-9.2177342936318976,-0.042022084305953708
-0.097137500000000002,-9.2177342936318976,-0.045739470052834956
-0.097112500000000004,-9.2214071352639273,-0.049456855799716204
-0.097087500000000007,-9.2214071352639273,-0.053174241546595759
-0.097062499999999996,-9.2214071352639273,-0.053174241546597452
-0.097037499999999999,-9.2214071352639273,-0.0568916272934787
-0.097012500000000002,-9.2214071352639273,-0.060609013040359955
-0.096987500000000004,-9.2214071352639273,-0.068043784534122451
-0.096962500000000007,-9.2250799768959588,-0.071761170281003692
-0.096937499999999996,-9.2250799768959588,-0.071761170281003692
-0.096912499999999999,-9.2287528185279886,-0.075478556027884947
-0.096887500000000001,-9.2250799768959588,-0.079195941774766188
-0.096862500000000004,-9.2287528185279886,-0.082913327521647442
-0.096837500000000007,-9.2287528185279886,-0.086630713268528697
-0.096812499999999996,-9.2287528185279886,-0.090348099015409938
-0.096787499999999999,-9.2324256601600201,-0.090348099015409938
-0.096762500000000001,-9.2324256601600201,-0.094065484762291193
-0.096737500000000004,-9.2324256601600201,-0.097782870509172434
-0.096712500000000007,-9.2324256601600201,-0.10150025625605369
-0.096687499999999996,-9.2324256601600201,-0.10150025625605369
-0.096662499999999998,-9.2324256601600201,-0.10150025625605369
-0.096637500000000001,-9.2324256601600201,-0.10893502774981619
-0.096612500000000004,-9.2324256601600201,-0.11265241349669743
-0.096587500000000007,-9.2324256601600201,-0.11636979924357868
-0.096562499999999996,-9.2360985017920498,-0.12008718499045994
-0.096537499999999998,-9.2360985017920498,-0.12008718499045994
-0.096512500000000001,-9.2360985017920498,-0.12380457073734119
-0.096487500000000004,-9.2360985017920498,-0.12380457073734119
-0.096462500000000007,-9.2360985017920498,-0.12752195648422243
-0.096437499999999995,-9.2360985017920498,-0.13123934223110537
-0.096412499999999998,-9.2360985017920498,-0.13495672797798491
-0.096387500000000001,-9.2397713434240814,-0.13867411372486618
-0.096362500000000004,-9.2360985017920498,-0.14239149947174742
-0.096337500000000006,-9.2397713434240814,-0.14610888521862866
-0.096312499999999995,-9.2397713434240814,-0.14610888521863036
-0.096287499999999998,-9.2397713434240814,-0.14982627096550993
-0.096262500000000001,-9.2397713434240814,-0.15354365671239117
-0.096237500000000004,-9.2397713434240814,-0.15726104245927242
-0.096212500000000006,-9.2397713434240814,-0.15726104245927242
-0.096187499999999995,-9.2434441850561093,-0.16097842820615535
-0.096162499999999998,-9.2397713434240814,-0.16469581395303493
-0.096137500000000001,-9.2397713434240814,-0.16841319969991617
-0.096112500000000003,-9.2434441850561111,-0.17213058544679741
-0.096087500000000006,-9.2434441850561111,-0.17213058544679741
-0.096062499999999995,-9.2434441850561111,-0.17584797119368037
-0.096037499999999998,-9.2434441850561111,-0.17956535694055992
-0.096012500000000001,-9.2434441850561111,-0.18328274268744116
-0.095987500000000003,-9.2471170266881426,-0.1870001284343224
-0.095962500000000006,-9.2471170266881426,-0.19071751418120367
-0.095937499999999995,-9.2434441850561129,-0.19071751418120536
-0.095912499999999998,-9.2471170266881426,-0.19443489992808491
-0.095887500000000001,-9.2471170266881426,-0.19815228567496615
-0.095862500000000003,-9.2471170266881426,-0.20186967142184739
-0.095837500000000006,-9.2471170266881426,-0.20186967142184739
-0.095812499999999995,-9.2471170266881426,-0.20558705716873035
-0.095787499999999998,-9.2471170266881426,-0.2093044429156099
-0.0957625,-9.2471170266881426,-0.2093044429156099
-0.095737500000000003,-9.2471170266881426,-0.21302182866249114
-0.095712500000000006,-9.2471170266881426,-0.21302182866249114
-0.095687499999999995,-9.2507898683201724,-0.2167392144093741
-0.095662499999999998,-9.2507898683201724,-0.22045660015625365
-0.0956375,-9.2507898683201724,-0.22417398590313489
-0.095612500000000003,-9.2507898683201724,-0.22789137165001613
-0.095587500000000006,-9.2507898683201724,-0.22789137165001613
-0.095562499999999995,-9.2507898683201724,-0.2316087573968991
-0.095537499999999997,-9.2507898683201724,-0.23532614314377864
-0.0955125,-9.2544627099522021,-0.23904352889065988
-0.095487500000000003,-9.2544627099522021,-0.24276091463754115
-0.095462500000000006,-9.2507898683201724,-0.24647830038442239
-0.095437499999999995,-9.2544627099522021,-0.24647830038442578
-0.095412499999999997,-9.2544627099522021,-0.2539130718781849
-0.0953875,-9.2544627099522021,-0.2539130718781849
-0.095362500000000003,-9.2544627099522021,-0.25763045762506614
-0.095337500000000006,-9.2544627099522021,-0.26134784337194739
-0.095312499999999994,-9.2544627099522021,-0.26506522911882863
-0.095287499999999997,-9.2544627099522021,-0.26506522911882863
-0.0952625,-9.2544627099522021,-0.27250000061259111
-0.095237500000000003,-9.2581355515842336,-0.27250000061259111
-0.095212500000000005,-9.2581355515842336,-0.27621738635947241
-0.095187500000000008,-9.2581355515842336,-0.27993477210635198
-0.095162499999999997,-9.2581355515842336,-0.27993477210635365
-0.0951375,-9.2581355515842336,-0.28736954360011613
-0.095112500000000003,-9.2581355515842336,-0.28736954360011613
-0.095087500000000005,-9.2618083932162634,-0.29108692934699737
-0.095062500000000008,-9.2581355515842354,-0.29480431509387695
-0.095037499999999997,-9.2581355515842336,-0.29480431509387861
-0.0950125,-9.2618083932162634,-0.29852170084075985
-0.094987500000000002,-9.2618083932162634,-0.30223908658764115
-0.094962500000000005,-9.2618083932162634,-0.30595647233452239
-0.094937500000000008,-9.2581355515842354,-0.30967385808140196
-0.094912499999999997,-9.2618083932162634,-0.31339124382828487
-0.0948875,-9.2618083932162634,-0.31339124382828487
-0.094862500000000002,-9.2618083932162634,-0.32082601532204735
-0.094837500000000005,-9.2618083932162634,-0.32082601532204735
-0.094812500000000008,-9.2618083932162634,-0.32454340106892693
-0.094787499999999997,-9.2618083932162634,-0.32454340106892859
-0.0947625,-9.2618083932162634,-0.33197817256269113
-0.094737500000000002,-9.2618083932162634,-0.33197817256269113
-0.094712500000000005,-9.2618083932162634,-0.33569555830957237
-0.094687500000000008,-9.2618083932162634,-0.33941294405645195
-0.094662499999999997,-9.2618083932162634,-0.34313032980333485
-0.094637499999999999,-9.2618083932162634,-0.3468477155502161
-0.094612500000000002,-9.2654812348482949,-0.3468477155502161
-0.094587500000000005,-9.2654812348482949,-0.35056510129709734
-0.094562500000000008,-9.2654812348482949,-0.35799987279085649
-0.094537499999999997,-9.2654812348482949,-0.35799987279085987
-0.094512499999999999,-9.2654812348482949,-0.36171725853774112
-0.094487500000000002,-9.2654812348482949,-0.36543464428462236
-0.094462500000000005,-9.2654812348482949,-0.36543464428462236
-0.094437500000000008,-9.2691540764803229,-0.36915203003150193
-0.094412499999999996,-9.2691540764803246,-0.37286941577838484
-0.094387499999999999,-9.2691540764803246,-0.37286941577838484
-0.094362500000000002,-9.2691540764803246,-0.37658680152526608
-0.094337500000000005,-9.2691540764803246,-0.38030418727214732
-0.094312500000000007,-9.2691540764803246,-0.38402157301902695
-0.094287499999999996,-9.2691540764803246,-0.38773895876590986
-0.094262499999999999,-9.2691540764803246,-0.3914563445127911
-0.094237500000000002,-9.2691540764803246,-0.3914563445127911
-0.094212500000000005,-9.2728269181123562,-0.39517373025967234
-0.094187500000000007,-9.2728269181123562,-0.39889111600655192
