Data/2 Data at 0_2A.csv

#Digilent WaveForms Oscilloscope Acquisition
#Device Name: PlasmaStuff
#Serial Number: SN:210321A41FE0
#Date Time: 2018-11-28 20:38:35.422
#Sample rate: 40000Hz
#Samples: 8192
#Trigger: Source: Channel 2 Type: Edge Condition: Rising Level: 200 mV Hyst.: Auto HoldOff: 0 s
#Channel 1: Range: 2 V/div Offset: 9.62 V
#Channel 2: Range: 2 V/div Offset: 0 V

Time (s),Channel 1 (V),Channel 2 (V)
-0.10238750000000001,-9.1002033614069209,0.83899833770490218
-0.1023625,-9.1002033614069209,0.83528095195801944
-0.1023375,-9.1002033614069209,0.8315635662111398
-0.1023125,-9.1002033614069209,0.82784618046425851
-0.1022875,-9.1002033614069209,0.82412879471737721
-0.10226250000000001,-9.1038762030389506,0.82041140897049591
-0.1022375,-9.1038762030389506,0.81297663747673354
-0.1022125,-9.1038762030389506,0.81297663747673354
-0.1021875,-9.1038762030389506,0.80554186598297095
-0.1021625,-9.1075490446709821,0.80182448023608988
-0.10213750000000001,-9.1038762030389506,0.80182448023608988
-0.10211249999999999,-9.1038762030389506,0.79810709448920525
-0.1020875,-9.1038762030389506,0.79067232299544599
-0.1020625,-9.1075490446709821,0.78695493724856469
-0.1020375,-9.1038762030389506,0.78323755150168362
-0.10201250000000001,-9.1075490446709821,0.78323755150168362
-0.10198749999999999,-9.1038762030389506,0.77952016575479899
-0.1019625,-9.1038762030389506,0.77208539426103973
-0.1019375,-9.1075490446709821,0.76836800851415843
-0.1019125,-9.1075490446709821,0.76465062276727735
-0.10188750000000001,-9.1038762030389506,0.76093323702039606
-0.10186249999999999,-9.1075490446709821,0.7572158512735131
-0.1018375,-9.1075490446709821,0.75349846552663347
-0.1018125,-9.1075490446709821,0.74978107977975239
-0.1017875,-9.1075490446709821,0.74978107977975239
-0.10176250000000001,-9.1075490446709821,0.7386289225391085
-0.10173749999999999,-9.1075490446709821,0.73862892253910684
-0.1017125,-9.1075490446709821,0.7349115367922272
-0.1016875,-9.1075490446709821,0.73119415104534613
-0.1016625,-9.1075490446709821,0.72747676529846483
-0.10163750000000001,-9.1075490446709821,0.72375937955158354
-0.10161249999999999,-9.1075490446709821,0.7163246080578195
-0.1015875,-9.1075490446709821,0.71260722231093987
-0.1015625,-9.1112218863030119,0.70888983656405857
-0.1015375,-9.1112218863030119,0.70888983656405857
-0.10151250000000001,-9.1112218863030119,0.70517245081717728
-0.10148750000000001,-9.1112218863030119,0.69773767932341824
-0.1014625,-9.1112218863030119,0.69402029357653361
-0.1014375,-9.1112218863030119,0.69030290782965231
-0.1014125,-9.1112218863030119,0.68658552208277102
-0.10138750000000001,-9.1148947279350434,0.67915075058900864
-0.10136250000000001,-9.1148947279350434,0.67543336484212901
-0.1013375,-9.1148947279350434,0.67171597909524605
-0.1013125,-9.1148947279350434,0.66799859334836476
-0.1012875,-9.1148947279350434,0.66056382185460238
-0.10126250000000001,-9.1112218863030119,0.66056382185460238
-0.10123750000000001,-9.1148947279350416,0.65312905036084312
-0.1012125,-9.1148947279350434,0.65312905036083979
-0.1011875,-9.1148947279350434,0.64197689312019612
-0.1011625,-9.1148947279350434,0.64197689312019612
-0.10113750000000001,-9.1148947279350434,0.63825950737331483
-0.10111250000000001,-9.1148947279350434,0.63082473587955556
-0.1010875,-9.1148947279350434,0.62710735013267116
-0.1010625,-9.1148947279350434,0.62710735013267116
-0.1010375,-9.1148947279350434,0.61967257863890857
-0.10101250000000001,-9.1148947279350434,0.61595519289202727
-0.10098750000000001,-9.1148947279350434,0.61223780714514786
-0.1009625,-9.1148947279350434,0.6085204213982649
-0.1009375,-9.1148947279350434,0.6048030356513836
-0.1009125,-9.1148947279350434,0.59736826415762101
-0.1008875,-9.1185675695670731,0.59365087841073994
-0.10086250000000001,-9.1185675695670731,0.5899334926638603
-0.1008375,-9.1148947279350434,0.58621610691697734
-0.1008125,-9.1185675695670731,0.58249872117009605
-0.1007875,-9.1185675695670731,0.57878133542321475
-0.1007625,-9.1185675695670731,0.57506394967633367
-0.10073750000000001,-9.1185675695670731,0.57134656392945404
-0.1007125,-9.1185675695670731,0.56391179243568978
-0.1006875,-9.1185675695670731,0.56019440668880871
-0.1006625,-9.1222404111991047,0.55647702094192741
-0.1006375,-9.1185675695670731,0.55275963519504612
-0.10061250000000001,-9.1222404111991029,0.54904224944816649
-0.1005875,-9.1185675695670731,0.54532486370128352
-0.1005625,-9.1222404111991047,0.54160747795440245
-0.1005375,-9.1222404111991047,0.53789009220752115
-0.1005125,-9.1185675695670731,0.53045532071375856
-0.10048750000000001,-9.1185675695670731,0.53045532071375856
-0.1004625,-9.1185675695670731,0.52302054921999619
-0.1004375,-9.1185675695670731,0.51930316347311489
-0.1004125,-9.1222404111991047,0.5155857777262336
-0.1003875,-9.1222404111991047,0.5118683919793523
-0.10036250000000001,-9.1222404111991047,0.50443362048559326
-0.1003375,-9.1222404111991047,0.50071623473870863
-0.1003125,-9.1222404111991047,0.49699884899182739
-0.1002875,-9.1222404111991047,0.49328146324494615
-0.1002625,-9.1222404111991047,0.48956407749806485
-0.10023750000000001,-9.1222404111991047,0.48584669175118528
-0.1002125,-9.1222404111991047,0.48212930600430237
-0.1001875,-9.1222404111991047,0.47469453451053989
-0.1001625,-9.1222404111991047,0.47097714876365865
-0.1001375,-9.1222404111991047,0.47097714876365865
-0.10011250000000001,-9.1222404111991047,0.46725976301677741
-0.1000875,-9.1222404111991047,0.45982499152301487
-0.1000625,-9.1222404111991047,0.45610760577613363
-0.1000375,-9.1259132528311344,0.45239022002925239
-0.1000125,-9.1222404111991047,0.44867283428237115
-0.099987500000000007,-9.1259132528311344,0.44123806278860866
-0.099962499999999996,-9.1259132528311344,0.43752067704172737
-0.099937499999999999,-9.1259132528311344,0.43380329129484613
-0.099912500000000001,-9.1259132528311344,0.43008590554796489
-0.099887500000000004,-9.1259132528311344,0.4226511340542024
-0.099862500000000007,-9.1259132528311344,0.4226511340542024
-0.099837499999999996,-9.1259132528311344,0.41521636256043992
-0.099812499999999998,-9.1259132528311344,0.41149897681355863
-0.099787500000000001,-9.1259132528311344,0.40778159106667738
-0.099762500000000004,-9.1259132528311344,0.40406420531979614
-0.099737500000000007,-9.1259132528311344,0.4003468195729149
-0.099712499999999996,-9.1259132528311362,0.396629433826032
-0.099687499999999998,-9.1295860944631642,0.39291204807915242
-0.099662500000000001,-9.1259132528311344,0.38919466233227118
-0.099637500000000004,-9.1259132528311344,0.38547727658538988
-0.099612500000000007,-9.1259132528311344,0.3780425050916274
-0.099587499999999995,-9.1259132528311362,0.37432511934474449
-0.099562499999999998,-9.1295860944631642,0.37060773359786492
-0.099537500000000001,-9.1259132528311344,0.36689034785098368
-0.099512500000000004,-9.1295860944631642,0.3594555763572212
-0.099487500000000006,-9.1295860944631642,0.3557381906103399
-0.099462499999999995,-9.1295860944631642,0.35202080486345699
-0.099437499999999998,-9.1295860944631642,0.34830341911657742
-0.099412500000000001,-9.1295860944631642,0.34458603336969618
-0.099387500000000004,-9.1295860944631642,0.33715126187593369
-0.099362500000000006,-9.1295860944631642,0.33343387612905245
-0.099337499999999995,-9.1295860944631642,0.32971649038217116
-0.099312499999999998,-9.1295860944631642,0.32971649038217116
-0.099287500000000001,-9.1295860944631642,0.32228171888840867
-0.099262500000000004,-9.1295860944631642,0.31856433314152743
-0.099237500000000006,-9.1295860944631642,0.31484694739464619
-0.099212499999999995,-9.1332589360951957,0.31112956164776329
-0.099187499999999998,-9.1332589360951957,0.30741217590088371
-0.099162500000000001,-9.1295860944631642,0.30369479015400241
-0.099137500000000003,-9.1332589360951957,0.29997740440712117
-0.099112500000000006,-9.1332589360951957,0.29254263291335869
-0.099087499999999995,-9.1332589360951957,0.28882524716647745
-0.099062499999999998,-9.1332589360951957,0.28882524716647745
-0.099037500000000001,-9.1332589360951957,0.28139047567271497
-0.099012500000000003,-9.1332589360951957,0.27767308992583367
-0.098987500000000006,-9.1332589360951957,0.27395570417895243
-0.098962499999999995,-9.1332589360951957,0.2702383184320678
-0.098937499999999998,-9.1332589360951957,0.26280354693830871
-0.0989125,-9.1332589360951957,0.25908616119142747
-0.098887500000000003,-9.1332589360951957,0.25536877544454623
-0.098862500000000006,-9.1369317777272254,0.25165138969766498
-0.098837499999999995,-9.1332589360951975,0.24793400395078202
-0.098812499999999998,-9.1369317777272254,0.24421661820390245
-0.0987875,-9.1369317777272254,0.23678184671013996
-0.098762500000000003,-9.1369317777272254,0.23678184671013996
-0.098737500000000006,-9.1332589360951957,0.2330644609632587
-0.098712499999999995,-9.1332589360951957,0.22934707521637576
-0.098687499999999997,-9.1332589360951957,0.22562968946949621
-0.0986625,-9.1369317777272254,0.2181949179757337
-0.098637500000000003,-9.1332589360951957,0.21447753222885246
-0.098612500000000006,-9.1369317777272254,0.21076014648197122
-0.098587499999999995,-9.1369317777272254,0.20704276073508826
-0.098562499999999997,-9.1369317777272254,0.20332537498820871
-0.0985375,-9.1369317777272254,0.19960798924132747
-0.098512500000000003,-9.1369317777272254,0.19589060349444623
-0.098487500000000006,-9.1369317777272254,0.18845583200068372
-0.098462499999999994,-9.1369317777272254,0.18473844625380079
-0.098437499999999997,-9.1369317777272254,0.18102106050692124
-0.0984125,-9.1369317777272254,0.17730367476003997
-0.098387500000000003,-9.1369317777272254,0.17358628901315873
-0.098362500000000005,-9.1406046193592569,0.16986890326627749
-0.098337500000000008,-9.1369317777272272,0.16243413177251836
-0.098312499999999997,-9.1406046193592569,0.16243413177251498
-0.0982875,-9.1406046193592569,0.1549993602787525
-0.098262500000000003,-9.1406046193592569,0.1549993602787525
-0.098237500000000005,-9.1406046193592569,0.15128197453187123
-0.098212500000000008,-9.1406046193592569,0.14384720303811213
-0.098187499999999997,-9.1406046193592569,0.14012981729122748
-0.0981625,-9.1406046193592569,0.13641243154434624
-0.098137500000000003,-9.1406046193592569,0.13269504579746499
-0.098112500000000005,-9.1406046193592569,0.12526027430370251
-0.098087500000000008,-9.1406046193592569,0.12154288855682294
-0.098062499999999997,-9.1406046193592569,0.11782550280993999
-0.0980375,-9.1406046193592569,0.11410811706305875
-0.098012500000000002,-9.1406046193592569,0.11039073131617749
-0.097987500000000005,-9.1369317777272254,0.10667334556929625
-0.097962500000000008,-9.1406046193592552,0.10295595982241669
-0.097937499999999997,-9.1406046193592569,0.099238574075533756
-0.0979125,-9.1406046193592569,0.095521188328652501
-0.097887500000000002,-9.1406046193592569,0.088086416834890005
-0.097862500000000005,-9.1406046193592569,0.088086416834890005
-0.097837500000000008,-9.1406046193592569,0.080651645341130895
-0.097812499999999997,-9.1406046193592569,0.080651645341127509
-0.097787499999999999,-9.1406046193592569,0.076934259594246254
-0.097762500000000002,-9.1442774609912867,0.069499488100483758
-0.097737500000000005,-9.1406046193592569,0.065782102353602517
-0.097712500000000008,-9.1442774609912849,0.062064716606722956
-0.097687499999999997,-9.1442774609912867,0.058347330859840014
-0.097662499999999999,-9.1442774609912867,0.050912559366077519
-0.097637500000000002,-9.1442774609912867,0.050912559366077519
-0.097612500000000005,-9.1442774609912867,0.043477787872315016
-0.097587500000000008,-9.1442774609912867,0.043477787872315016
-0.097562499999999996,-9.1442774609912867,0.03604301637855252
-0.097537499999999999,-9.1442774609912867,0.032325630631671272
-0.097512500000000002,-9.1442774609912867,0.028608244884790024
-0.097487500000000005,-9.1442774609912867,0.024890859137908776
-0.097462500000000007,-9.1442774609912867,0.021173473391029214
-0.097437499999999996,-9.1479503026233182,0.017456087644146277
-0.097412499999999999,-9.1479503026233182,0.010021316150383779
-0.097387500000000002,-9.1479503026233182,0.0063039304035025301
-0.097362500000000005,-9.1442774609912867,0.0063039304035025301
-0.097337500000000007,-9.1479503026233164,0.0025865446566229718
-0.097312499999999996,-9.1479503026233182,-0.0048482268371412163
-0.097287499999999999,-9.1479503026233182,-0.008565612584022466
-0.097262500000000002,-9.1479503026233182,-0.012282998330903714
-0.097237500000000004,-9.151623144255348,-0.016000384077784962
-0.097212500000000007,-9.14795030262332,-0.019717769824664524
-0.097187499999999996,-9.151623144255348,-0.027152541318428709
-0.097162499999999999,-9.1479503026233182,-0.030869927065309957
-0.097137500000000002,-9.1479503026233182,-0.034587312812191205
-0.097112500000000004,-9.151623144255348,-0.038304698559072453
-0.097087500000000007,-9.14795030262332,-0.042022084305952015
-0.097062499999999996,-9.151623144255348,-0.045739470052834956
-0.097037499999999999,-9.151623144255348,-0.053174241546597452
-0.097012500000000002,-9.151623144255348,-0.0568916272934787
-0.096987500000000004,-9.151623144255348,-0.060609013040359955
-0.096962500000000007,-9.151623144255348,-0.064326398787241196
-0.096937499999999996,-9.151623144255348,-0.068043784534122451
-0.096912499999999999,-9.151623144255348,-0.068043784534122451
-0.096887500000000001,-9.151623144255348,-0.075478556027884947
-0.096862500000000004,-9.1552959858873795,-0.079195941774766188
-0.096837500000000007,-9.151623144255348,-0.082913327521647442
-0.096812499999999996,-9.1552959858873795,-0.086630713268528697
-0.096787499999999999,-9.1552959858873795,-0.090348099015409938
-0.096762500000000001,-9.1552959858873795,-0.094065484762291193
-0.096737500000000004,-9.1552959858873795,-0.097782870509172434
-0.096712500000000007,-9.1552959858873795,-0.10150025625605369
-0.096687499999999996,-9.1552959858873777,-0.10893502774981788
-0.096662499999999998,-9.151623144255348,-0.11265241349669743
-0.096637500000000001,-9.151623144255348,-0.11636979924357868
-0.096612500000000004,-9.1552959858873795,-0.11636979924357868
-0.096587500000000007,-9.1552959858873795,-0.12380457073734119
-0.096562499999999996,-9.1552959858873795,-0.12752195648422412
-0.096537499999999998,-9.1552959858873795,-0.13123934223110367
-0.096512500000000001,-9.1552959858873795,-0.13495672797798491
-0.096487500000000004,-9.1552959858873795,-0.13867411372486618
-0.096462500000000007,-9.1552959858873795,-0.14239149947174742
-0.096437499999999995,-9.1589688275194074,-0.14610888521863036
-0.096412499999999998,-9.1552959858873795,-0.14982627096550993
-0.096387500000000001,-9.1589688275194092,-0.15354365671239117
-0.096362500000000004,-9.1589688275194092,-0.16097842820615366
-0.096337500000000006,-9.1552959858873795,-0.16097842820615366
-0.096312499999999995,-9.1589688275194092,-0.16841319969991786
-0.096287499999999998,-9.1589688275194092,-0.17213058544679741
-0.096262500000000001,-9.1589688275194092,-0.17584797119367868
-0.096237500000000004,-9.1589688275194092,-0.17956535694055992
-0.096212500000000006,-9.1589688275194092,-0.18328274268744116
-0.096187499999999995,-9.1589688275194092,-0.18700012843432409
-0.096162499999999998,-9.1589688275194092,-0.19071751418120367
-0.096137500000000001,-9.1589688275194092,-0.19443489992808491
-0.096112500000000003,-9.1589688275194092,-0.19815228567496615
-0.096087500000000006,-9.1589688275194092,-0.20186967142184739
-0.096062499999999995,-9.158968827519411,-0.20558705716873035
-0.096037499999999998,-9.162641669151439,-0.2093044429156099
-0.096012500000000001,-9.1589688275194092,-0.21302182866249114
-0.095987500000000003,-9.1589688275194092,-0.21302182866249114
-0.095962500000000006,-9.162641669151439,-0.22045660015625365
-0.095937499999999995,-9.162641669151439,-0.22045660015625534
-0.095912499999999998,-9.162641669151439,-0.22417398590313489
-0.095887500000000001,-9.162641669151439,-0.2316087573968974
-0.095862500000000003,-9.162641669151439,-0.2316087573968974
-0.095837500000000006,-9.162641669151439,-0.23904352889065988
-0.095812499999999995,-9.162641669151439,-0.24276091463754285
-0.095787499999999998,-9.162641669151439,-0.24647830038442239
-0.0957625,-9.162641669151439,-0.25019568613130366
-0.095737500000000003,-9.162641669151439,-0.2539130718781849
-0.095712500000000006,-9.162641669151439,-0.25763045762506614
-0.095687499999999995,-9.162641669151439,-0.26506522911883029
-0.095662499999999998,-9.162641669151439,-0.26878261486570987
-0.0956375,-9.1663145107834705,-0.27250000061259111
-0.095612500000000003,-9.162641669151439,-0.27621738635947241
-0.095587500000000006,-9.1663145107834705,-0.27993477210635365
-0.095562499999999995,-9.1663145107834687,-0.28365215785323655
-0.095537499999999997,-9.162641669151439,-0.28736954360011613
-0.0955125,-9.1663145107834705,-0.29108692934699737
-0.095487500000000003,-9.1663145107834705,-0.29480431509387861
-0.095462500000000006,-9.1663145107834705,-0.29852170084075985
-0.095437499999999995,-9.1663145107834705,-0.30223908658764281
-0.095412499999999997,-9.1663145107834705,-0.30595647233452239
-0.0953875,-9.1663145107834705,-0.30967385808140363
-0.095362500000000003,-9.1663145107834705,-0.31339124382828487
-0.095337500000000006,-9.1663145107834705,-0.32082601532204735
-0.095312499999999994,-9.1699873524155002,-0.32454340106892859
-0.095287499999999997,-9.1699873524155002,-0.32454340106892859
-0.0952625,-9.1699873524155002,-0.32826078681580989
-0.095237500000000003,-9.1699873524155002,-0.33569555830957237
-0.095212500000000005,-9.1699873524155002,-0.33941294405645361
-0.095187500000000008,-9.1699873524155002,-0.34313032980333319
-0.095162499999999997,-9.1699873524155002,-0.3468477155502161
-0.0951375,-9.1699873524155002,-0.35056510129709734
-0.095112500000000003,-9.1699873524155002,-0.35428248704397863
-0.095087500000000005,-9.1699873524155002,-0.35799987279085987
-0.095062500000000008,-9.1663145107834723,-0.36171725853773945
-0.095037499999999997,-9.1699873524155002,-0.36543464428462236
-0.0950125,-9.1699873524155002,-0.36543464428462236
-0.094987500000000002,-9.1699873524155002,-0.37286941577838484
-0.094962500000000005,-9.1699873524155002,-0.37658680152526608
-0.094937500000000008,-9.1699873524155002,-0.38030418727214566
-0.094912499999999997,-9.1736601940475317,-0.38402157301902862
-0.0948875,-9.1699873524155002,-0.38773895876590986
-0.094862500000000002,-9.1736601940475317,-0.3914563445127911
-0.094837500000000005,-9.1699873524155002,-0.39517373025967234
-0.094812500000000008,-9.17366019404753,-0.40260850175343144
-0.094787499999999997,-9.1736601940475317,-0.40632588750031606
-0.0947625,-9.1736601940475317,-0.41004327324719736
-0.094737500000000002,-9.1736601940475317,-0.4137606589940786
-0.094712500000000005,-9.1736601940475317,-0.41747804474095984
-0.094687500000000008,-9.1736601940475317,-0.42119543048783942
-0.094662499999999997,-9.1736601940475317,-0.42491281623472232
-0.094637499999999999,-9.1736601940475317,-0.42863020198160356
-0.094612500000000002,-9.1736601940475317,-0.43234758772848481
-0.094587500000000005,-9.1736601940475317,-0.4360649734753661
-0.094562500000000008,-9.1736601940475317,-0.43978235922224568
-0.094537499999999997,-9.1736601940475317,-0.44349974496912858
-0.094512499999999999,-9.1736601940475317,-0.44721713071600983
-0.094487500000000002,-9.1736601940475317,-0.45093451646289107
-0.094462500000000005,-9.1736601940475317,-0.45465190220977231
-0.094437500000000008,-9.1773330356795597,-0.45836928795665188
-0.094412499999999996,-9.1736601940475317,-0.46208667370353484
-0.094387499999999999,-9.1736601940475317,-0.46580405945041609
-0.094362500000000002,-9.1736601940475317,-0.46952144519729733
-0.094337500000000005,-9.1736601940475317,-0.47695621669105981
-0.094312500000000007,-9.1736601940475317,-0.48067360243793938
-0.094287499999999996,-9.1773330356795615,-0.48439098818482229
-0.094262499999999999,-9.1773330356795615,-0.48810837393170359
-0.094237500000000002,-9.1773330356795615,-0.49182575967858483
-0.094212500000000005,-9.1773330356795615,-0.49554314542546607
-0.094187500000000007,-9.1773330356795615,-0.49926053117234565
-0.094162499999999996,-9.1773330356795615,-0.50297791691922855
