Data/2 Data at 1_5A.csv

#Digilent WaveForms Oscilloscope Acquisition
#Device Name: PlasmaStuff
#Serial Number: SN:210321A41FE0
#Date Time: 2018-11-28 20:32:19.027
#Sample rate: 40000Hz
#Samples: 8192
#Trigger: Source: Channel 2 Type: Edge Condition: Rising Level: 200 mV Hyst.: Auto HoldOff: 0 s
#Channel 1: Range: 2 V/div Offset: 9.62 V
#Channel 2: Range: 2 V/div Offset: 0 V

Time (s),Channel 1 (V),Channel 2 (V)
-0.10237500000000001,-9.1002033614069209,0.81297663747673354
-0.10235,-9.1002033614069209,0.80925925172985058
-0.102325,-9.1002033614069209,0.80554186598297095
-0.1023,-9.1002033614069209,0.80182448023608988
-0.102275,-9.1038762030389506,0.79810709448920858
-0.10225000000000001,-9.1038762030389506,0.79067232299544599
-0.102225,-9.1002033614069227,0.78695493724856469
-0.1022,-9.1038762030389506,0.78695493724856469
-0.102175,-9.1002033614069209,0.78323755150168362
-0.10215,-9.1038762030389506,0.77952016575480232
-0.10212500000000001,-9.1038762030389506,0.77580278000792102
-0.1021,-9.1038762030389506,0.77208539426103806
-0.102075,-9.1038762030389506,0.76836800851415843
-0.10205,-9.1038762030389506,0.76465062276727735
-0.102025,-9.1038762030389506,0.76093323702039606
-0.10200000000000001,-9.1038762030389506,0.75721585127351476
-0.101975,-9.1038762030389506,0.7534984655266318
-0.10195,-9.1038762030389506,0.74978107977975239
-0.101925,-9.1038762030389506,0.74606369403287109
-0.1019,-9.1038762030389506,0.7423463082859898
-0.10187500000000001,-9.1038762030389506,0.7386289225391085
-0.10185,-9.1038762030389524,0.73491153679222554
-0.101825,-9.1075490446709821,0.73119415104534613
-0.1018,-9.1038762030389506,0.72747676529846483
-0.101775,-9.1075490446709821,0.72004199380470224
-0.10175000000000001,-9.1075490446709821,0.71632460805782117
-0.101725,-9.1075490446709821,0.7126072223109382
-0.1017,-9.1075490446709821,0.70888983656405857
-0.101675,-9.1075490446709821,0.70517245081717728
-0.10165,-9.1075490446709821,0.70517245081717728
-0.10162500000000001,-9.1075490446709821,0.69773767932341491
-0.1016,-9.1075490446709839,0.69402029357653194
-0.101575,-9.1112218863030119,0.69030290782965231
-0.10155,-9.1075490446709821,0.68658552208277102
-0.101525,-9.1112218863030119,0.68286813633588972
-0.10150000000000001,-9.1075490446709821,0.67915075058900864
-0.10147500000000001,-9.1112218863030101,0.67543336484212901
-0.10145,-9.1112218863030119,0.66799859334836476
-0.101425,-9.1075490446709821,0.66428120760148368
-0.1014,-9.1075490446709821,0.66056382185460238
-0.10137500000000001,-9.1075490446709821,0.65684643610772109
-0.10135000000000001,-9.1112218863030101,0.65312905036084146
-0.101325,-9.1112218863030119,0.64941166461395849
-0.1013,-9.1112218863030119,0.64569427886707742
-0.101275,-9.1112218863030119,0.64197689312019612
-0.10125000000000001,-9.1112218863030119,0.63454212162643353
-0.10122500000000001,-9.1112218863030119,0.6308247358795539
-0.1012,-9.1112218863030119,0.62710735013267116
-0.101175,-9.1112218863030119,0.62338996438578986
-0.10115,-9.1112218863030119,0.61967257863890857
-0.10112500000000001,-9.1148947279350434,0.61967257863890857
-0.10110000000000001,-9.1112218863030137,0.61223780714514953
-0.101075,-9.1112218863030119,0.6085204213982649
-0.10105,-9.1112218863030119,0.6048030356513836
-0.101025,-9.1148947279350434,0.60108564990450231
-0.10100000000000001,-9.1112218863030119,0.59365087841073994
-0.10097500000000001,-9.1148947279350416,0.59365087841073994
-0.10095,-9.1148947279350434,0.58993349266385864
-0.100925,-9.1148947279350434,0.58621610691697734
-0.1009,-9.1148947279350434,0.58249872117009605
-0.10087500000000001,-9.1148947279350434,0.57878133542321475
-0.10085000000000001,-9.1148947279350434,0.57134656392945571
-0.100825,-9.1185675695670731,0.56762917818257108
-0.1008,-9.1185675695670731,0.56391179243568978
-0.100775,-9.1185675695670731,0.56391179243568978
-0.10075000000000001,-9.1148947279350434,0.55647702094192741
-0.10072500000000001,-9.1185675695670714,0.55275963519504778
-0.1007,-9.1185675695670731,0.54904224944816482
-0.100675,-9.1185675695670731,0.54532486370128352
-0.10065,-9.1185675695670731,0.54160747795440245
-0.10062500000000001,-9.1148947279350434,0.53789009220752115
-0.10060000000000001,-9.1148947279350434,0.53417270646064152
-0.100575,-9.1185675695670731,0.53045532071375856
-0.10055,-9.1185675695670731,0.52302054921999619
-0.100525,-9.1185675695670731,0.51930316347311489
-0.10050000000000001,-9.1185675695670731,0.5155857777262336
-0.10047500000000001,-9.1185675695670731,0.51186839197935396
-0.10045,-9.1185675695670731,0.50815100623247123
-0.100425,-9.1185675695670731,0.50443362048558993
-0.1004,-9.1185675695670731,0.50071623473870863
-0.10037500000000001,-9.1185675695670731,0.49699884899182739
-0.10035000000000001,-9.1185675695670731,0.49328146324494782
-0.100325,-9.1185675695670731,0.48956407749806485
-0.1003,-9.1222404111991047,0.48212930600430237
-0.100275,-9.1185675695670731,0.47469453451053989
-0.10025000000000001,-9.1222404111991047,0.47841192025742113
-0.10022500000000001,-9.1222404111991047,0.47469453451054155
-0.1002,-9.1185675695670731,0.46725976301677741
-0.100175,-9.1222404111991047,0.46354237726989611
-0.10015,-9.1222404111991047,0.45982499152301487
-0.10012500000000001,-9.1222404111991047,0.45610760577613363
-0.10010000000000001,-9.1222404111991047,0.45239022002925239
-0.100075,-9.1222404111991047,0.44867283428237115
-0.10005,-9.1222404111991047,0.44123806278860866
-0.100025,-9.1222404111991047,0.43752067704172737
-0.10000000000000001,-9.1222404111991047,0.43380329129484613
-0.099975000000000008,-9.1222404111991047,0.42636851980108365
-0.099949999999999997,-9.1259132528311344,0.4226511340542024
-0.099925,-9.1259132528311344,0.4226511340542024
-0.099900000000000003,-9.1222404111991047,0.41521636256043992
-0.099875000000000005,-9.1259132528311344,0.41521636256043992
-0.099850000000000008,-9.1259132528311344,0.40778159106667738
-0.099824999999999997,-9.1259132528311344,0.40406420531979614
-0.0998,-9.1259132528311344,0.40406420531979614
-0.099775000000000003,-9.1259132528311344,0.39662943382603366
-0.099750000000000005,-9.1259132528311344,0.39662943382603366
-0.099725000000000008,-9.1259132528311344,0.38919466233227118
-0.099699999999999997,-9.1259132528311344,0.3854772765853865
-0.099675,-9.1259132528311344,0.3780425050916274
-0.099650000000000002,-9.1259132528311344,0.37432511934474616
-0.099625000000000005,-9.1295860944631642,0.37060773359786492
-0.099600000000000008,-9.1259132528311344,0.36317296210410244
-0.099574999999999997,-9.1259132528311344,0.35945557635721953
-0.09955,-9.1259132528311344,0.3557381906103399
-0.099525000000000002,-9.1259132528311344,0.3557381906103399
-0.099500000000000005,-9.1259132528311344,0.34830341911657742
-0.099475000000000008,-9.1259132528311344,0.34458603336969618
-0.099449999999999997,-9.1295860944631642,0.34086864762281494
-0.099424999999999999,-9.1295860944631642,0.34086864762281494
-0.099400000000000002,-9.1295860944631642,0.33343387612905245
-0.099375000000000005,-9.1295860944631642,0.33343387612905245
-0.099350000000000008,-9.1295860944631642,0.32599910463528992
-0.099324999999999997,-9.1295860944631642,0.32228171888840867
-0.099299999999999999,-9.1295860944631642,0.32228171888840867
-0.099275000000000002,-9.1295860944631642,0.31484694739464619
-0.099250000000000005,-9.1332589360951957,0.31112956164776495
-0.099225000000000008,-9.1332589360951957,0.30741217590088371
-0.099199999999999997,-9.1332589360951957,0.30369479015400075
-0.099174999999999999,-9.1332589360951957,0.29997740440712117
-0.099150000000000002,-9.1332589360951957,0.29254263291335869
-0.099125000000000005,-9.1332589360951957,0.28882524716647745
-0.099100000000000008,-9.1295860944631642,0.28882524716647745
-0.099074999999999996,-9.1295860944631659,0.2813904756727133
-0.099049999999999999,-9.1332589360951957,0.27767308992583367
-0.099025000000000002,-9.1332589360951957,0.27395570417895243
-0.099000000000000005,-9.1295860944631642,0.27023831843207119
-0.098975000000000007,-9.1332589360951957,0.26652093268518995
-0.098949999999999996,-9.1332589360951957,0.26280354693830532
-0.098924999999999999,-9.1332589360951957,0.25536877544454623
-0.098900000000000002,-9.1332589360951957,0.25165138969766498
-0.098875000000000005,-9.1332589360951957,0.24793400395078372
-0.098850000000000007,-9.1332589360951957,0.24793400395078372
-0.098824999999999996,-9.1332589360951957,0.24421661820389906
-0.098799999999999999,-9.1332589360951957,0.23678184671013996
-0.098775000000000002,-9.1332589360951957,0.2330644609632587
-0.098750000000000004,-9.1332589360951957,0.22934707521637746
-0.098725000000000007,-9.1332589360951957,0.22562968946949621
-0.098699999999999996,-9.1369317777272254,0.22191230372261159
-0.098674999999999999,-9.1369317777272254,0.21447753222885246
-0.098650000000000002,-9.1369317777272254,0.21076014648197122
-0.098625000000000004,-9.1369317777272254,0.20704276073508995
-0.098600000000000007,-9.1369317777272254,0.20332537498820871
-0.098574999999999996,-9.1369317777272254,0.19960798924132578
-0.098549999999999999,-9.1369317777272254,0.19589060349444623
-0.098525000000000001,-9.1406046193592569,0.19217321774756496
-0.098500000000000004,-9.1369317777272254,0.18845583200068372
-0.098475000000000007,-9.1369317777272254,0.18473844625380248
-0.098449999999999996,-9.1369317777272254,0.18102106050691955
-0.098424999999999999,-9.1369317777272254,0.17730367476003997
-0.098400000000000001,-9.1369317777272254,0.17358628901315873
-0.098375000000000004,-9.1406046193592569,0.16986890326627749
-0.098350000000000007,-9.1406046193592569,0.16615151751939622
-0.09832500000000001,-9.1406046193592569,0.16243413177251667
-0.098299999999999998,-9.1406046193592569,0.15871674602563374
-0.098275000000000001,-9.1406046193592569,0.1549993602787525
-0.098250000000000004,-9.1406046193592569,0.15128197453187123
-0.098225000000000007,-9.1406046193592569,0.14384720303810875
-0.09820000000000001,-9.1406046193592569,0.14012981729122917
-0.098174999999999998,-9.1406046193592569,0.13641243154434624
-0.098150000000000001,-9.1406046193592569,0.13269504579746499
-0.098125000000000004,-9.1406046193592569,0.12897766005058375
-0.098100000000000007,-9.1406046193592569,0.12526027430370251
-0.098075000000000009,-9.1406046193592569,0.12154288855682294
-0.098049999999999998,-9.1406046193592569,0.11410811706305875
-0.098025000000000001,-9.1406046193592569,0.11410811706305875
-0.098000000000000004,-9.1442774609912867,0.10667334556929625
-0.097975000000000007,-9.1442774609912867,0.102955959822415
-0.097950000000000009,-9.1406046193592587,0.099238574075535449
-0.097924999999999998,-9.1442774609912867,0.099238574075533756
-0.097900000000000001,-9.1442774609912867,0.095521188328652501
-0.097875000000000004,-9.1479503026233182,0.088086416834890005
-0.097850000000000006,-9.1442774609912867,0.088086416834890005
-0.097825000000000009,-9.1442774609912867,0.080651645341130895
-0.097799999999999998,-9.1479503026233182,0.076934259594246254
-0.097775000000000001,-9.1479503026233182,0.073216873847365013
-0.097750000000000004,-9.1479503026233182,0.069499488100483758
-0.097725000000000006,-9.1479503026233182,0.065782102353602517
-0.097700000000000009,-9.1479503026233182,0.062064716606722956
-0.097674999999999998,-9.151623144255348,0.058347330859840014
-0.097650000000000001,-9.1479503026233182,0.050912559366077519
-0.097625000000000003,-9.1479503026233182,0.047195173619196271
-0.097600000000000006,-9.1479503026233182,0.043477787872315016
-0.097575000000000009,-9.1516231442553462,0.039760402125435461
-0.097549999999999998,-9.1479503026233182,0.03604301637855252
-0.097525000000000001,-9.151623144255348,0.03604301637855252
-0.097500000000000003,-9.151623144255348,0.028608244884790024
-0.097475000000000006,-9.151623144255348,0.024890859137908776
-0.097450000000000009,-9.151623144255348,0.021173473391029214
-0.097424999999999998,-9.151623144255348,0.021173473391027525
-0.0974,-9.151623144255348,0.013738701897265029
-0.097375000000000003,-9.151623144255348,0.010021316150383779
-0.097350000000000006,-9.151623144255348,0.0063039304035025301
-0.097325000000000009,-9.151623144255348,0.0025865446566229718
-0.097299999999999998,-9.151623144255348,-0.0011308410902599675
-0.097275,-9.1479503026233182,-0.0048482268371412163
-0.097250000000000003,-9.151623144255348,-0.008565612584022466
-0.097225000000000006,-9.151623144255348,-0.016000384077784962
-0.097200000000000009,-9.151623144255348,-0.019717769824664524
-0.097174999999999997,-9.151623144255348,-0.023435155571547461
-0.09715,-9.151623144255348,-0.027152541318428709
-0.097125000000000003,-9.1552959858873795,-0.034587312812191205
-0.097100000000000006,-9.1552959858873795,-0.034587312812191205
-0.097075000000000009,-9.1552959858873795,-0.03830469855907076
-0.097049999999999997,-9.1552959858873795,-0.042022084305953708
-0.097025,-9.1552959858873795,-0.045739470052834956
-0.097000000000000003,-9.1552959858873795,-0.049456855799716204
-0.096975000000000006,-9.1552959858873795,-0.049456855799716204
-0.096950000000000008,-9.1552959858873795,-0.0568916272934787
-0.096924999999999997,-9.1552959858873795,-0.060609013040359955
-0.0969,-9.1552959858873795,-0.064326398787241196
-0.096875000000000003,-9.1552959858873795,-0.068043784534122451
-0.096850000000000006,-9.1589688275194092,-0.071761170281003692
-0.096825000000000008,-9.1552959858873795,-0.075478556027884947
-0.096799999999999997,-9.1589688275194092,-0.082913327521647442
-0.096775,-9.1552959858873795,-0.086630713268528697
-0.096750000000000003,-9.1589688275194092,-0.090348099015409938
-0.096725000000000005,-9.1589688275194092,-0.094065484762291193
-0.096700000000000008,-9.1589688275194092,-0.097782870509172434
-0.096674999999999997,-9.1589688275194092,-0.10150025625605538
-0.09665,-9.1589688275194092,-0.10521764200293493
-0.096625000000000003,-9.1589688275194092,-0.10893502774981619
-0.096600000000000005,-9.1589688275194092,-0.11265241349669743
-0.096575000000000008,-9.1589688275194092,-0.11636979924357868
-0.096549999999999997,-9.1589688275194092,-0.12008718499045994
-0.096525,-9.1589688275194092,-0.12008718499045994
-0.096500000000000002,-9.1589688275194092,-0.12380457073734119
-0.096475000000000005,-9.1589688275194092,-0.13123934223110367
-0.096450000000000008,-9.1589688275194092,-0.13495672797798491
-0.096424999999999997,-9.1589688275194092,-0.13867411372486788
-0.0964,-9.1589688275194092,-0.14239149947174742
-0.096375000000000002,-9.1589688275194092,-0.14610888521862866
-0.096350000000000005,-9.1589688275194092,-0.15354365671239117
-0.096325000000000008,-9.162641669151439,-0.15726104245927242
-0.096299999999999997,-9.162641669151439,-0.15726104245927411
-0.096274999999999999,-9.162641669151439,-0.16097842820615366
-0.096250000000000002,-9.162641669151439,-0.16469581395303493
-0.096225000000000005,-9.162641669151439,-0.17213058544679741
-0.096200000000000008,-9.162641669151439,-0.17584797119367868
-0.096174999999999997,-9.162641669151439,-0.17956535694056161
-0.096149999999999999,-9.162641669151439,-0.18328274268744116
-0.096125000000000002,-9.162641669151439,-0.18328274268744116
-0.096100000000000005,-9.162641669151439,-0.1870001284343224
-0.096075000000000008,-9.162641669151439,-0.19071751418120367
-0.096049999999999996,-9.162641669151439,-0.1944348999280866
-0.096024999999999999,-9.162641669151439,-0.19815228567496615
-0.096000000000000002,-9.1663145107834705,-0.20186967142184739
-0.095975000000000005,-9.162641669151439,-0.20558705716872866
-0.095950000000000008,-9.1663145107834705,-0.2093044429156099
-0.095924999999999996,-9.1663145107834705,-0.20930444291561329
-0.095899999999999999,-9.1663145107834705,-0.21673921440937241
-0.095875000000000002,-9.1663145107834705,-0.21673921440937241
-0.095850000000000005,-9.1663145107834705,-0.22045660015625365
-0.095825000000000007,-9.1663145107834705,-0.22789137165001613
-0.095799999999999996,-9.1663145107834705,-0.2316087573968991
-0.095774999999999999,-9.1663145107834705,-0.23532614314377864
-0.095750000000000002,-9.1663145107834705,-0.23904352889065988
-0.095725000000000005,-9.1663145107834705,-0.24276091463754115
-0.095700000000000007,-9.1663145107834705,-0.24647830038442239
-0.095674999999999996,-9.1663145107834723,-0.25019568613130533
-0.095649999999999999,-9.1699873524155002,-0.2539130718781849
-0.095625000000000002,-9.1663145107834705,-0.25763045762506614
-0.095600000000000004,-9.1663145107834705,-0.26134784337194739
-0.095575000000000007,-9.1699873524155002,-0.26506522911882863
-0.095549999999999996,-9.1699873524155002,-0.26878261486571153
-0.095524999999999999,-9.1699873524155002,-0.27250000061259111
-0.095500000000000002,-9.1699873524155002,-0.27621738635947241
-0.095475000000000004,-9.1699873524155002,-0.27993477210635365
-0.095450000000000007,-9.1699873524155002,-0.28365215785323489
-0.095424999999999996,-9.1699873524155002,-0.28736954360011779
-0.095399999999999999,-9.1699873524155002,-0.29108692934699737
-0.095375000000000001,-9.1699873524155002,-0.29480431509387861
-0.095350000000000004,-9.1736601940475317,-0.30223908658764115
-0.095325000000000007,-9.1736601940475317,-0.30223908658764115
-0.095299999999999996,-9.1736601940475317,-0.30595647233452405
-0.095274999999999999,-9.1736601940475317,-0.30967385808140363
-0.095250000000000001,-9.1736601940475317,-0.31710862957516611
-0.095225000000000004,-9.1699873524155002,-0.31710862957516611
-0.095200000000000007,-9.1699873524155002,-0.32454340106892859
-0.09517500000000001,-9.17366019404753,-0.32454340106892859
-0.095149999999999998,-9.1736601940475317,-0.33197817256269113
-0.095125000000000001,-9.1736601940475317,-0.33197817256269113
-0.095100000000000004,-9.1736601940475317,-0.33569555830957237
-0.095075000000000007,-9.1736601940475317,-0.33941294405645361
-0.095050000000000009,-9.1736601940475317,-0.34313032980333319
-0.095024999999999998,-9.1736601940475317,-0.3468477155502161
-0.095000000000000001,-9.1736601940475317,-0.35428248704397863
-0.094975000000000004,-9.1736601940475317,-0.35799987279085987
-0.094950000000000007,-9.1736601940475317,-0.36171725853774112
-0.094925000000000009,-9.1736601940475317,-0.36171725853774112
-0.094899999999999998,-9.1736601940475317,-0.3691520300315036
-0.094875000000000001,-9.1736601940475317,-0.3691520300315036
-0.094850000000000004,-9.1736601940475317,-0.37658680152526608
-0.094825000000000007,-9.1773330356795615,-0.38030418727214732
-0.094800000000000009,-9.1773330356795615,-0.38402157301902695
-0.094774999999999998,-9.1773330356795615,-0.38773895876590986
-0.094750000000000001,-9.1773330356795615,-0.3914563445127911
-0.094725000000000004,-9.1736601940475317,-0.3914563445127911
-0.094700000000000006,-9.1773330356795615,-0.39889111600655358
-0.094675000000000009,-9.1773330356795615,-0.39889111600655358
-0.094649999999999998,-9.1773330356795615,-0.40260850175343482
-0.094625000000000001,-9.181005877311593,-0.40632588750031606
-0.094600000000000004,-9.1773330356795615,-0.41004327324719736
-0.094575000000000006,-9.1773330356795615,-0.4137606589940786
-0.094550000000000009,-9.1810058773115912,-0.41747804474095818
-0.094524999999999998,-9.181005877311593,-0.42491281623472232
-0.094500000000000001,-9.181005877311593,-0.42863020198160356
-0.094475000000000003,-9.181005877311593,-0.43234758772848481
-0.094450000000000006,-9.181005877311593,-0.43234758772848481
-0.094425000000000009,-9.181005877311593,-0.43606497347536444
-0.094399999999999998,-9.181005877311593,-0.43978235922224734
-0.094375000000000001,-9.181005877311593,-0.44721713071600983
-0.094350000000000003,-9.181005877311593,-0.45093451646289107
-0.094325000000000006,-9.181005877311593,-0.45465190220977231
-0.094300000000000009,-9.181005877311593,-0.45465190220977231
-0.094274999999999998,-9.181005877311593,-0.46208667370353484
-0.09425,-9.181005877311593,-0.46580405945041609
-0.094225000000000003,-9.181005877311593,-0.46952144519729733
-0.094200000000000006,-9.181005877311593,-0.46952144519729733
-0.094175000000000009,-9.181005877311593,-0.47695621669105642
-0.094149999999999998,-9.181005877311593,-0.47695621669105981
-0.094125,-9.181005877311593,-0.48439098818482229
