Data/2 Data at 4_0A.csv

#Digilent WaveForms Oscilloscope Acquisition
#Device Name: PlasmaStuff
#Serial Number: SN:210321A41FE0
#Date Time: 2018-11-28 20:21:33.604
#Sample rate: 40000Hz
#Samples: 8192
#Trigger: Source: Channel 2 Type: Edge Condition: Rising Level: 200 mV Hyst.: Auto HoldOff: 0 s
#Channel 1: Range: 2 V/div Offset: 9.62 V
#Channel 2: Range: 2 V/div Offset: 0 V

Time (s),Channel 1 (V),Channel 2 (V)
-0.10237500000000001,-7.4070233690408482,0.6048030356513836
-0.10235,-7.4364061020971031,0.60108564990450231
-0.102325,-7.4584431518892753,0.60108564990450231
-0.1023,-7.4768073600494285,0.59736826415762101
-0.102275,-7.4951715682095816,0.59736826415762101
-0.10225000000000001,-7.5098629347377033,0.58993349266385864
-0.102225,-7.5208814596338032,0.58993349266385531
-0.1022,-7.5392456677939474,0.58249872117009605
-0.102175,-7.5502641926900385,0.58249872117009605
-0.10215,-7.5576098759540997,0.57878133542321475
-0.10212500000000001,-7.5759740841142529,0.57506394967633367
-0.1021,-7.5906654506423816,0.57134656392945238
-0.102075,-7.6053568171704971,0.57134656392945238
-0.10205,-7.5943382922744052,0.56762917818257108
-0.102025,-7.6090296588025268,0.56391179243568978
-0.10200000000000001,-7.62739386696268,0.56019440668880871
-0.101975,-7.6457580751228349,0.55647702094192741
-0.10195,-7.6494309167548629,0.55647702094192741
-0.101925,-7.6200481836986187,0.55275963519504612
-0.1019,-7.6457580751228331,0.54904224944816482
-0.10187500000000001,-7.6788136498111079,0.54160747795440245
-0.10185,-7.7045235412353295,0.54160747795440245
-0.101825,-7.7228877493954737,0.54160747795440245
-0.1018,-7.7375791159235963,0.53417270646063986
-0.101775,-7.7559433240837485,0.53417270646063986
-0.10175000000000001,-7.7706346906118711,0.53045532071375856
-0.101725,-7.7853260571399909,0.5267379349668756
-0.1017,-7.7816532155079621,0.52302054921999619
-0.101675,-7.7889988987720233,0.51930316347311489
-0.10165,-7.8110359485642062,0.5155857777262336
-0.10162500000000001,-7.8294001567243594,0.5118683919793523
-0.1016,-7.8440915232524864,0.51186839197934897
-0.101575,-7.8551100481485729,0.50443362048558993
-0.10155,-7.8624557314126342,0.50071623473870863
-0.101525,-7.8734742563087252,0.50071623473870863
-0.10150000000000001,-7.8881656228368477,0.49699884899182739
-0.10147500000000001,-7.8991841477329334,0.49328146324494782
-0.10145,-7.9138755142610613,0.49328146324494615
-0.101425,-7.9212211975251225,0.48956407749806485
-0.1014,-7.9359125640532442,0.48584669175118361
-0.10137500000000001,-7.9506039305813658,0.48584669175118361
-0.10135000000000001,-7.9652952971094813,0.47841192025742452
-0.101325,-7.9726409803735496,0.47469453451053989
-0.1013,-7.9836595052696406,0.47097714876365865
-0.101275,-7.9946780301657325,0.47097714876365865
-0.10125000000000001,-8.0093693966938542,0.46725976301677741
-0.10122500000000001,-8.0240607632219696,0.46354237726989778
-0.1012,-8.0387521297500992,0.45982499152301487
-0.101175,-8.0497706546461902,0.45610760577613363
-0.10115,-8.060789179542283,0.45239022002925239
-0.10112500000000001,-8.071807704438374,0.44867283428237115
-0.10110000000000001,-8.0864990709664895,0.44495544853549157
-0.101075,-8.0975175958625876,0.44123806278860866
-0.10105,-8.1048632791266488,0.43752067704172737
-0.101025,-8.1195546456547696,0.43380329129484613
-0.10100000000000001,-8.1305731705508624,0.43380329129484613
-0.10097500000000001,-8.1415916954469481,0.42636851980108703
-0.10095,-8.1489373787110146,0.42636851980108365
-0.100925,-8.1599559036071057,0.4226511340542024
-0.1009,-8.1562830619750759,0.4226511340542024
-0.10087500000000001,-8.1673015868711669,0.41893374830732116
-0.10085000000000001,-8.1856657950313103,0.41521636256044159
-0.100825,-8.2003571615594417,0.41149897681355863
-0.1008,-8.2150485280875643,0.40778159106667738
-0.100775,-8.2297398946156868,0.40406420531979614
-0.10075000000000001,-8.2407584195117778,0.4003468195729149
-0.10072500000000001,-8.2334127362477201,0.39662943382603533
-0.1007,-8.2444312611438093,0.39291204807915242
-0.100675,-8.2591226276719301,0.38919466233227118
-0.10065,-8.2774868358320823,0.38919466233227118
-0.10062500000000001,-8.2921782023602049,0.38175989083850864
-0.10060000000000001,-8.2995238856242626,0.38175989083850864
-0.100575,-8.3105424105203571,0.3780425050916274
-0.10055,-8.3215609354164499,0.37432511934474616
-0.100525,-8.3289066186805112,0.37060773359786492
-0.10050000000000001,-8.3362523019445725,0.36689034785098368
-0.10047500000000001,-8.3472708268406581,0.3631729621041041
-0.10045,-8.3582893517367545,0.36317296210410244
-0.100425,-8.3693078766328455,0.3594555763572212
-0.1004,-8.3803264015289383,0.3557381906103399
-0.10037500000000001,-8.3876720847929995,0.35202080486345866
-0.10035000000000001,-8.3950177680570555,0.34830341911657908
-0.100325,-8.4060362929531518,0.34830341911657742
-0.1003,-8.4133819762172131,0.34458603336969618
-0.100275,-8.4244005011133041,0.33715126187593369
-0.10025000000000001,-8.4280733427453356,0.33715126187593369
-0.10022500000000001,-8.4390918676414213,0.33343387612905412
-0.1002,-8.4501103925375176,0.32971649038217116
-0.100175,-8.4611289174336086,0.32599910463528992
-0.10015,-8.4684746006976699,0.32228171888840867
-0.10012500000000001,-8.4831659672257924,0.31856433314152743
-0.10010000000000001,-8.4941844921218834,0.31484694739464619
-0.100075,-8.5015301753859447,0.31112956164776495
-0.10005,-8.5052030170179762,0.30741217590088371
-0.100025,-8.5162215419140672,0.30369479015400241
-0.10000000000000001,-8.5125487002820375,0.30369479015400241
-0.099975000000000008,-8.508875858650006,0.29997740440712117
-0.099949999999999997,-8.5235672251781285,0.29626001866023993
-0.099925,-8.5419314333382808,0.29254263291335869
-0.099900000000000003,-8.5566227998664033,0.28882524716647745
-0.099875000000000005,-8.5639684831304645,0.28882524716647745
-0.099850000000000008,-8.5749870080265556,0.28139047567271497
-0.099824999999999997,-8.5786598496585853,0.28139047567271497
-0.0998,-8.5860055329226466,0.27767308992583367
-0.099775000000000003,-8.5933512161867078,0.27395570417895243
-0.099750000000000005,-8.6006968994507691,0.27023831843207119
-0.099725000000000008,-8.6080425827148304,0.26652093268518995
-0.099699999999999997,-8.6080425827148339,0.26280354693830704
-0.099675,-8.6153882659788916,0.25908616119142747
-0.099650000000000002,-8.6264067908749826,0.25536877544454623
-0.099625000000000005,-8.6337524741390439,0.25536877544454623
-0.099600000000000008,-8.6374253157710754,0.25165138969766498
-0.099574999999999997,-8.6447709990351385,0.24793400395078202
-0.09955,-8.6521166822991962,0.24421661820390245
-0.099525000000000002,-8.6668080488273187,0.24421661820390245
-0.099500000000000005,-8.6778265737234097,0.24049923245702121
-0.099475000000000008,-8.6888450986195025,0.2330644609632587
-0.099449999999999997,-8.688845098619506,0.233064460963257
-0.099424999999999999,-8.6961907818835638,0.22934707521637746
-0.099400000000000002,-8.7035364651476232,0.22562968946949621
-0.099375000000000005,-8.714554990043716,0.22191230372261497
-0.099350000000000008,-8.7219006733077773,0.2181949179757337
-0.099324999999999997,-8.6814994153554341,0.21447753222885077
-0.099299999999999999,-8.6668080488273187,0.21076014648197122
-0.099275000000000002,-8.6925179402515322,0.20704276073508995
-0.099250000000000005,-8.6557895239312277,0.20704276073508995
-0.099225000000000008,-8.6594623655632574,0.20332537498820871
-0.099199999999999997,-8.670480890459352,0.19960798924132578
-0.099174999999999999,-8.6778265737234097,0.19589060349444623
-0.099150000000000002,-8.6814994153554412,0.19217321774756496
-0.099125000000000005,-8.7108821484116845,0.18845583200068372
-0.099100000000000008,-8.7476105647319908,0.18845583200068372
-0.099074999999999996,-8.7696476145241835,0.18473844625380248
-0.099049999999999999,-8.7916846643163566,0.18473844625380248
-0.099025000000000002,-8.8027031892124477,0.17730367476003997
-0.099000000000000005,-8.8137217141085404,0.17730367476003997
-0.098975000000000007,-8.8173945557405702,0.17358628901315873
-0.098949999999999996,-8.8210673973726035,0.16986890326627579
-0.098924999999999999,-8.8247402390046314,0.16615151751939622
-0.098900000000000002,-8.8320859222686927,0.16243413177251498
-0.098875000000000005,-8.8320859222686927,0.15871674602563374
-0.098850000000000007,-8.8210673973726017,0.1549993602787525
-0.098824999999999996,-8.7990303475804179,0.15128197453186953
-0.098799999999999999,-8.7990303475804179,0.14756458878498999
-0.098775000000000002,-8.8284130806366612,0.14756458878498999
-0.098750000000000004,-8.8541229720608747,0.14384720303810875
-0.098725000000000007,-8.8651414969569675,0.14012981729122748
-0.098699999999999996,-8.8724871802210323,0.13641243154434454
-0.098674999999999999,-8.87983286348509,0.13269504579746499
-0.098650000000000002,-8.8871785467491495,0.13269504579746499
-0.098625000000000004,-8.8908513883811811,0.12897766005058375
-0.098600000000000007,-8.8908513883811811,0.12526027430370251
-0.098574999999999996,-8.8908513883811864,0.12154288855681955
-0.098549999999999999,-8.9018699132772721,0.11782550280993999
-0.098525000000000001,-8.9092155965413333,0.11410811706305875
-0.098500000000000004,-8.9128884381733648,0.11410811706305875
-0.098475000000000007,-8.9128884381733648,0.10667334556929625
-0.098449999999999996,-8.9165612798053964,0.10667334556929456
-0.098424999999999999,-8.9202341214374243,0.102955959822415
-0.098400000000000001,-8.9275798047014856,0.099238574075533756
-0.098375000000000004,-8.9312526463335171,0.095521188328652501
-0.098350000000000007,-8.9275798047014856,0.095521188328652501
-0.09832500000000001,-8.9275798047014856,0.091803802581772953
-0.098299999999999998,-8.9385983295975784,0.088086416834890005
-0.098275000000000001,-8.9422711712296081,0.08436903108800875
-0.098250000000000004,-8.9385983295975784,0.08436903108800875
-0.098225000000000007,-8.9496168544936694,0.076934259594246254
-0.09820000000000001,-8.9569625377577271,0.076934259594246254
-0.098174999999999998,-8.9569625377577307,0.073216873847365013
-0.098150000000000001,-8.9496168544936694,0.073216873847365013
-0.098125000000000004,-8.9643082210217919,0.065782102353602517
-0.098100000000000007,-8.9753267459178829,0.062064716606721262
-0.098075000000000009,-8.9789995875499109,0.058347330859841708
-0.098049999999999998,-8.9826724291819442,0.058347330859840014
-0.098025000000000001,-8.9863452708139739,0.054629945112958767
-0.098000000000000004,-8.9936909540780352,0.050912559366077519
-0.097975000000000007,-8.9973637957100667,0.047195173619196271
-0.097950000000000009,-9.0010366373420947,0.043477787872316709
-0.097924999999999998,-9.0010366373420965,0.039760402125433768
-0.097900000000000001,-9.0010366373420965,0.03604301637855252
-0.097875000000000004,-9.0083823206061577,0.03604301637855252
-0.097850000000000006,-9.0010366373420965,0.032325630631671272
-0.097825000000000009,-9.0083823206061542,0.028608244884791714
-0.097799999999999998,-9.0083823206061577,0.024890859137908776
-0.097775000000000001,-9.004709478974128,0.021173473391027525
-0.097750000000000004,-9.0010366373420965,0.017456087644146277
-0.097725000000000006,-9.004709478974128,0.017456087644146277
-0.097700000000000009,-9.004709478974128,0.017456087644146277
-0.097674999999999998,-9.0120551622381875,0.013738701897265029
-0.097650000000000001,-9.0194008455022487,0.010021316150383779
-0.097625000000000003,-9.0230736871342803,0.0025865446566212813
-0.097600000000000006,-9.0230736871342803,0.0025865446566212813
-0.097575000000000009,-9.030419370398338,-0.0048482268371378354
-0.097549999999999998,-9.0230736871342803,-0.0048482268371412163
-0.097525000000000001,-9.037765053662401,-0.008565612584022466
-0.097500000000000003,-9.0414378952944325,-0.012282998330903714
-0.097475000000000006,-9.0487835785584938,-0.016000384077784962
-0.097450000000000009,-9.0634749450866092,-0.019717769824664524
-0.097424999999999998,-9.0671477867186461,-0.023435155571547461
-0.0974,-9.0744934699827073,-0.023435155571547461
-0.097375000000000003,-9.0781663116147371,-0.027152541318428709
-0.097350000000000006,-9.0818391532467686,-0.030869927065309957
-0.097325000000000009,-9.0818391532467686,-0.034587312812189512
-0.097299999999999998,-9.0855119948787983,-0.038304698559072453
-0.097275,-9.0818391532467686,-0.038304698559072453
-0.097250000000000003,-9.0524564201905235,-0.042022084305953708
-0.097225000000000006,-9.0634749450866163,-0.045739470052834956
-0.097200000000000009,-9.0818391532467597,-0.049456855799714511
-0.097174999999999997,-9.0891848365108299,-0.049456855799716204
-0.09715,-9.1002033614069209,-0.053174241546597452
-0.097125000000000003,-9.1038762030389506,-0.0568916272934787
-0.097100000000000006,-9.1075490446709821,-0.060609013040359955
-0.097075000000000009,-9.1075490446709821,-0.064326398787239503
-0.097049999999999997,-9.1112218863030119,-0.064326398787241196
-0.097025,-9.1148947279350434,-0.071761170281003692
-0.097000000000000003,-9.1148947279350434,-0.071761170281003692
-0.096975000000000006,-9.1185675695670731,-0.075478556027884947
-0.096950000000000008,-9.1148947279350434,-0.079195941774766188
-0.096924999999999997,-9.1185675695670731,-0.082913327521647442
-0.0969,-9.1185675695670731,-0.082913327521647442
-0.096875000000000003,-9.1222404111991047,-0.090348099015409938
-0.096850000000000006,-9.1222404111991047,-0.090348099015409938
-0.096825000000000008,-9.1295860944631642,-0.094065484762291193
-0.096799999999999997,-9.1295860944631642,-0.094065484762291193
-0.096775,-9.1148947279350434,-0.097782870509172434
-0.096750000000000003,-9.1038762030389506,-0.10150025625605369
-0.096725000000000005,-9.1112218863030119,-0.10521764200293493
-0.096700000000000008,-9.1259132528311344,-0.10521764200293493
-0.096674999999999997,-9.136931777727229,-0.11265241349669912
-0.09665,-9.1442774609912867,-0.11636979924357868
-0.096625000000000003,-9.1479503026233182,-0.11636979924357868
-0.096600000000000005,-9.1479503026233182,-0.12008718499045994
-0.096575000000000008,-9.151623144255348,-0.12380457073734119
-0.096549999999999997,-9.14795030262332,-0.12752195648422412
-0.096525,-9.151623144255348,-0.13123934223110367
-0.096500000000000002,-9.1552959858873795,-0.13123934223110367
-0.096475000000000005,-9.151623144255348,-0.13495672797798491
-0.096450000000000008,-9.1552959858873795,-0.13867411372486618
-0.096424999999999997,-9.158968827519411,-0.14239149947174912
-0.0964,-9.162641669151439,-0.14610888521862866
-0.096375000000000002,-9.162641669151439,-0.14982627096550993
-0.096350000000000005,-9.1663145107834705,-0.14982627096550993
-0.096325000000000008,-9.1663145107834705,-0.14982627096550993
-0.096299999999999997,-9.1663145107834705,-0.15726104245927242
-0.096274999999999999,-9.1663145107834705,-0.15726104245927242
-0.096250000000000002,-9.151623144255348,-0.16097842820615366
-0.096225000000000005,-9.151623144255348,-0.16097842820615366
-0.096200000000000008,-9.1406046193592569,-0.16469581395303493
-0.096174999999999997,-9.0965305197749089,-0.16841319969991955
-0.096149999999999999,-9.1369317777272254,-0.17584797119367868
-0.096125000000000002,-9.162641669151439,-0.17584797119367868
-0.096100000000000005,-9.1736601940475317,-0.17956535694055992
-0.096075000000000008,-9.1846787189436228,-0.18328274268744116
-0.096049999999999996,-9.1920244022076858,-0.18700012843432409
-0.096024999999999999,-9.1956972438397138,-0.19071751418120367
-0.096000000000000002,-9.192024402207684,-0.19071751418120367
-0.095975000000000005,-9.1993700854717453,-0.19443489992808491
-0.095950000000000008,-9.1956972438397138,-0.19815228567496615
-0.095924999999999996,-9.1920244022076858,-0.19815228567496784
-0.095899999999999999,-9.1956972438397138,-0.20186967142184739
-0.095875000000000002,-9.1993700854717453,-0.20558705716872866
-0.095850000000000005,-9.203042927103775,-0.20558705716872866
-0.095825000000000007,-9.1956972438397138,-0.2093044429156099
-0.095799999999999996,-9.1736601940475389,-0.21302182866249114
-0.095774999999999999,-9.1883515605756543,-0.21302182866249114
-0.095750000000000002,-9.1993700854717453,-0.21673921440937241
-0.095725000000000005,-9.203042927103775,-0.22045660015625365
-0.095700000000000007,-9.2067157687358065,-0.22417398590313489
-0.095674999999999996,-9.214061451999866,-0.22789137165001613
-0.095649999999999999,-9.2103886103678363,-0.22789137165001613
-0.095625000000000002,-9.2103886103678363,-0.2316087573968974
-0.095600000000000004,-9.2067157687358065,-0.23532614314377864
-0.095575000000000007,-9.2103886103678363,-0.23904352889065988
-0.095549999999999996,-9.2030429271037573,-0.23904352889066158
-0.095524999999999999,-9.162641669151439,-0.24276091463754115
-0.095500000000000002,-9.1846787189436228,-0.24647830038442239
-0.095475000000000004,-9.2067157687358065,-0.25019568613130366
-0.095450000000000007,-9.2177342936318976,-0.2539130718781849
-0.095424999999999996,-9.2177342936318993,-0.25019568613130705
-0.095399999999999999,-9.2214071352639273,-0.25763045762506614
-0.095375000000000001,-9.2214071352639273,-0.26134784337194739
-0.095350000000000004,-9.2287528185279886,-0.26506522911882863
-0.095325000000000007,-9.2287528185279886,-0.26506522911882863
-0.095299999999999996,-9.225079976895957,-0.26878261486571153
-0.095274999999999999,-9.2214071352639273,-0.27250000061259111
-0.095250000000000001,-9.2287528185279886,-0.27621738635947241
-0.095225000000000004,-9.2324256601600201,-0.27993477210635365
-0.095200000000000007,-9.2360985017920498,-0.28365215785323489
-0.09517500000000001,-9.2030429271037892,-0.28736954360011446
-0.095149999999999998,-9.1589688275194092,-0.29108692934699737
-0.095125000000000001,-9.1993700854717453,-0.29108692934699737
-0.095100000000000004,-9.2214071352639273,-0.29480431509387861
-0.095075000000000007,-9.2397713434240814,-0.29480431509387861
-0.095050000000000009,-9.2434441850561093,-0.30223908658763776
-0.095024999999999998,-9.2434441850561111,-0.30223908658764115
-0.095000000000000001,-9.2434441850561111,-0.30595647233452239
-0.094975000000000004,-9.2434441850561111,-0.30595647233452239
-0.094950000000000007,-9.2471170266881426,-0.30967385808140363
-0.094925000000000009,-9.2397713434240849,-0.31339124382828321
-0.094899999999999998,-9.2397713434240814,-0.31710862957516611
-0.094875000000000001,-9.2434441850561111,-0.32082601532204735
-0.094850000000000004,-9.2434441850561111,-0.32454340106892859
-0.094825000000000007,-9.2103886103678363,-0.32826078681580989
-0.094800000000000009,-9.1920244022076929,-0.32826078681580989
-0.094774999999999998,-9.2103886103678363,-0.33197817256269113
-0.094750000000000001,-9.2177342936318976,-0.33569555830957237
-0.094725000000000004,-9.2250799768959588,-0.33941294405645361
-0.094700000000000006,-9.2434441850561111,-0.33941294405645361
-0.094675000000000009,-9.2250799768959677,-0.34313032980333319
-0.094649999999999998,-9.2324256601600201,-0.3468477155502161
-0.094625000000000001,-9.2507898683201724,-0.35056510129709734
-0.094600000000000004,-9.2618083932162634,-0.35428248704397863
-0.094575000000000006,-9.2618083932162634,-0.35428248704397863
-0.094550000000000009,-9.2654812348482931,-0.35799987279085821
-0.094524999999999998,-9.2654812348482949,-0.35799987279085987
-0.094500000000000001,-9.2654812348482949,-0.36171725853774112
-0.094475000000000003,-9.2618083932162634,-0.36543464428462236
-0.094450000000000006,-9.2618083932162634,-0.3691520300315036
-0.094425000000000009,-9.2581355515842354,-0.37286941577838317
-0.094399999999999998,-9.2654812348482949,-0.37286941577838484
-0.094375000000000001,-9.2581355515842336,-0.37658680152526608
-0.094350000000000003,-9.2471170266881426,-0.38030418727214732
-0.094325000000000006,-9.2544627099522021,-0.38402157301902862
-0.094300000000000009,-9.2581355515842318,-0.38773895876590819
-0.094274999999999998,-9.2581355515842336,-0.3914563445127911
-0.09425,-9.2397713434240814,-0.39517373025967234
-0.094225000000000003,-9.2214071352639273,-0.39889111600655358
-0.094200000000000006,-9.2507898683201724,-0.39889111600655358
-0.094175000000000009,-9.261808393216258,-0.40260850175343316
-0.094149999999999998,-9.2691540764803246,-0.40632588750031606
